Orientation Sensor Raw Data Test

Current Temperature: 27 C

Calibration status values: 0=uncalibrated, 3=fully calibrated
time	eul_z	eul_y	eul_x	linA_x	linA_y	linA_z	cal_sys	cal_gyr	cal_acc	cal_mag
1159	0.00	0.00	0.00	0.00	0.00	0.00	
135	0.00	0.00	0.00	0.00	0.00	0.00	
105	0.00	0.00	0.00	0.00	0.00	0.00	
106	0.00	0.00	0.00	0.00	0.00	0.00	
105	0.00	0.00	0.00	0.00	0.00	0.00	
105	28.44	-31.31	-13.19	0.00	-1.17	0.27	
105	28.62	-34.63	-10.44	-0.31	-2.55	0.90	
105	25.44	-40.56	-13.63	-0.77	-2.86	0.86	
105	21.75	-43.69	-20.87	-0.45	-2.57	0.66	
105	20.19	-46.81	-26.75	-0.09	-2.08	0.79	
107	18.94	-50.00	-30.94	-0.31	-1.65	0.19	
105	18.81	-51.44	-31.00	-0.46	-1.45	-0.04	
107	19.19	-52.44	-28.44	-0.45	-1.72	0.28	
107	26.19	-55.19	-6.94	-0.28	-0.93	0.16	
105	26.56	-55.13	-7.38	-0.19	-0.28	0.16	
105	26.31	-55.06	-8.44	-0.15	-0.23	0.24	
105	26.06	-54.63	-8.38	-0.18	0.08	0.37	
106	26.19	-54.94	-9.56	-0.16	-0.04	0.33	
105	26.44	-55.13	-10.44	0.10	-0.06	-0.05	
108	27.12	-54.81	-11.56	0.19	0.13	-0.13	
106	28.06	-54.44	-13.44	-0.04	0.56	-0.48	
105	29.69	-54.56	-17.44	-0.54	1.82	-1.17	
108	34.94	-55.63	-22.81	-1.61	4.06	-2.39	
105	44.81	-57.88	-16.75	-3.37	3.76	-1.83	
106	57.38	-63.94	-8.81	-6.79	1.96	2.03	
105	70.00	-77.06	10.00	-8.30	1.41	5.63	
106	84.06	-78.31	134.13	-5.34	-0.58	6.74	
107	95.00	-62.19	156.25	4.64	-2.60	4.88	
105	92.44	-60.56	165.69	10.01	-1.12	5.56	
107	88.87	-58.63	172.06	7.14	0.28	4.16	
106	82.50	-58.19	179.75	4.35	0.11	-0.75	
106	80.50	-65.62	-178.94	1.14	1.13	0.76	
105	79.87	-69.19	-177.50	0.43	1.53	2.24	
105	78.00	-72.31	-170.50	0.88	1.09	-0.00	
105	80.50	-76.44	-166.06	0.52	1.00	-2.07	
106	87.56	-81.56	-179.38	-0.54	0.51	-3.92	
107	95.25	-86.19	177.06	-7.94	-0.99	-4.32	
105	98.44	-86.19	176.19	-15.26	-2.07	3.82	
107	100.37	-72.87	163.81	-4.49	-1.37	9.36	
106	81.94	-59.81	167.31	9.61	-0.84	4.51	
106	79.81	-53.56	172.69	10.73	0.14	1.42	
105	76.62	-52.75	174.94	6.69	1.39	0.24	
105	69.87	-56.56	179.31	3.47	2.16	0.60	
105	62.75	-61.44	-175.94	2.58	1.89	0.90	
105	60.56	-65.31	-172.25	2.25	0.55	-1.26	
108	63.00	-73.50	-170.75	0.94	0.59	-3.67	
105	69.50	-83.62	-177.75	-7.33	0.59	-0.86	
107	74.25	-85.12	-3.25	-19.65	-1.21	8.53	
108	81.25	-79.25	175.94	-11.12	2.04	17.42	
105	89.50	-57.81	169.25	14.48	6.41	14.39	
105	89.00	-50.81	167.31	19.68	1.55	2.78	
106	79.06	-53.19	171.81	9.85	-2.24	-1.27	
106	64.94	-64.44	-179.13	5.01	-0.22	0.42	
108	63.69	-79.69	-165.94	0.32	-0.03	0.44	
105	59.06	-79.87	-104.69	-2.67	1.99	0.56	
108	61.19	-81.75	-104.44	-2.60	2.59	1.41	
107	67.19	-86.44	-1.06	-0.83	-0.31	2.12	
106	64.81	-80.37	2.75	-1.04	0.55	3.65	
105	61.88	-77.00	2.31	-1.79	2.15	3.34	
105	62.38	-73.69	-3.56	-0.21	1.42	0.86	
105	69.62	-71.75	9.06	0.49	-1.08	1.38	
105	75.69	-74.44	18.81	-1.97	-2.89	3.01	
107	83.69	-72.00	44.31	-2.49	-6.17	3.60	
107	78.25	-78.06	64.00	1.11	-8.31	2.92	
105	62.38	-86.37	177.06	4.89	-4.17	0.28	
107	36.81	-81.87	-116.44	6.21	2.88	-0.42	
105	22.19	-78.69	-91.25	3.52	5.88	0.41	
105	15.88	-78.81	-66.44	-0.12	5.63	1.24	
105	14.75	-79.06	-60.81	-2.84	7.00	1.45	
105	18.81	-81.25	-51.88	-2.44	6.71	1.65	
105	24.81	-82.75	-59.56	-1.01	6.90	3.41	
107	37.69	-84.06	-5.88	0.02	9.07	4.72	
105	61.44	-88.87	-179.06	2.92	6.04	7.14	
107	90.50	-82.69	74.75	5.09	-0.67	10.19	
107	116.37	-74.19	58.38	5.90	-5.67	9.43	
106	131.63	-68.94	49.75	5.77	-8.26	6.49	
105	144.13	-63.25	34.19	1.39	-6.87	5.96	
105	156.69	-57.75	33.50	-5.14	-7.24	8.46	
106	160.63	-62.75	42.06	-4.26	-9.33	7.74	
106	153.44	-73.75	68.37	2.17	-6.37	1.62	
107	138.88	-80.12	120.25	7.30	-4.19	-2.63	
107	117.56	-82.00	177.25	7.82	1.06	-1.65	
107	109.50	-86.06	179.88	4.07	7.71	-0.34	
106	116.87	-81.12	74.94	-0.28	3.72	1.20	
106	118.31	-78.69	58.63	-7.59	2.76	6.44	
105	123.87	-82.56	107.44	-4.00	5.03	6.34	
105	139.69	-76.31	136.25	10.94	3.38	0.63	
105	164.38	-71.44	95.06	10.92	-2.42	3.41	
107	181.50	-63.50	64.87	3.74	-8.12	7.39	
105	191.13	-55.13	50.44	1.28	-8.31	4.80	
107	193.75	-49.19	43.94	-2.09	-7.59	3.32	
107	190.25	-47.13	42.75	-2.38	-4.59	4.13	
105	186.94	-48.00	46.19	-0.02	-2.41	4.27	
105	182.06	-51.31	56.38	1.88	-3.00	2.84	
105	174.25	-55.50	63.81	2.58	-3.36	1.54	
105	163.00	-59.88	74.19	2.40	-2.90	1.26	
105	150.63	-64.44	80.12	1.63	-3.06	2.71	
107	131.75	-71.75	95.81	2.83	-3.53	5.71	
105	105.25	-79.12	167.63	7.60	3.70	3.61	
107	90.25	-79.50	-157.44	7.37	9.72	-0.48	
107	87.81	-84.44	-5.44	1.09	8.05	0.23	
105	95.06	-83.00	-14.44	-4.05	4.70	2.87	
105	103.19	-83.37	1.50	-2.63	0.66	2.61	
106	110.81	-83.12	32.06	0.50	-0.50	0.89	
105	126.12	-81.12	33.00	-5.52	1.40	5.45	
106	158.00	-78.44	87.25	-7.49	-2.29	14.44	
107	172.69	-63.31	155.50	4.82	-10.54	15.32	
108	149.69	-57.88	174.38	10.55	-8.81	13.65	
105	97.19	-54.13	-153.00	6.68	1.70	12.88	
108	54.56	-54.94	-112.81	2.96	11.91	7.76	
105	28.87	-50.94	-84.56	-2.14	18.29	0.86	
106	11.00	-48.63	-57.19	-7.82	22.37	2.96	
105	7.69	-64.19	-46.38	-5.69	13.88	9.72	
105	8.06	-79.06	-74.50	3.10	1.23	7.24	
107	5.75	-79.19	-132.44	6.61	1.87	2.88	
105	4.94	-73.50	-176.81	9.72	7.25	1.60	
107	16.44	-59.19	150.50	10.70	5.95	6.30	
107	58.56	-44.56	127.75	3.86	-5.84	8.91	
106	103.62	-36.56	104.37	0.15	-16.33	2.61	
105	134.38	-41.75	74.06	-0.18	-20.55	-0.71	
105	148.38	-56.19	73.69	-1.25	-17.52	4.40	
105	152.81	-52.81	125.50	1.80	-6.53	9.96	
105	87.00	-29.06	155.44	8.59	3.01	10.15	
107	90.06	-10.56	163.13	13.89	5.38	5.93	
105	88.00	-15.75	164.00	12.56	3.25	5.30	
107	84.75	-35.38	162.88	6.84	2.28	8.52	
106	115.37	-65.06	140.44	0.84	0.01	10.38	
106	98.94	-63.88	26.12	-6.16	-1.18	13.48	
105	82.62	-37.19	9.13	-14.28	0.45	16.52	
106	77.00	-41.50	11.31	-13.45	-0.58	12.69	
105	63.56	-58.44	13.19	-5.00	0.12	6.61	
105	51.81	-76.31	13.94	1.13	4.45	3.57	
108	42.44	-85.81	178.56	5.31	6.55	1.56	
107	49.38	-76.50	165.75	6.88	4.30	0.14	
106	65.19	-73.81	138.88	6.47	0.84	-0.77	
107	77.00	-72.31	119.50	4.76	-0.72	-0.66	
106	82.00	-73.75	105.12	0.83	0.59	0.65	
105	86.69	-74.69	79.69	-4.47	2.07	2.95	
106	97.69	-72.94	69.56	-6.06	-1.85	4.41	
105	107.44	-73.50	75.81	-3.39	-5.67	3.92	
108	110.44	-74.81	97.81	-0.24	-3.96	2.35	
105	111.62	-73.81	115.12	3.08	-1.75	1.26	
108	111.44	-73.06	119.81	4.58	-1.85	-0.20	
107	108.19	-74.31	117.19	3.47	-2.25	-1.48	
105	101.44	-75.75	119.25	2.48	-0.85	2.94	
105	92.00	-73.50	117.44	-5.63	5.18	8.88	
105	87.00	-69.37	131.25	-6.74	5.20	8.97	
105	94.69	-67.31	128.94	1.62	-7.68	-3.00	
105	99.06	-65.06	141.31	3.14	-12.86	-15.71	
107	85.94	-64.31	157.69	3.69	-7.03	-12.89	
106	72.31	-68.75	168.19	5.74	-0.79	-1.95	
106	74.69	-75.12	168.00	3.32	4.43	8.40	
107	76.37	-74.75	151.31	0.55	5.58	8.14	
105	81.56	-70.25	138.44	1.13	1.35	4.26	
105	85.19	-71.12	138.75	-1.11	-1.61	4.21	
105	83.87	-77.12	124.44	-5.50	-0.74	1.01	
105	88.87	-77.94	91.62	-8.43	-0.27	-0.02	
105	95.94	-77.31	79.06	-4.29	-1.35	1.76	
108	101.56	-78.19	88.56	0.82	-4.33	2.13	
106	101.75	-77.94	119.87	1.02	-5.17	2.96	
106	108.31	-68.69	136.69	-2.48	-5.30	4.70	
108	116.44	-51.63	143.31	1.48	-7.63	7.33	
105	89.69	-45.19	161.31	13.06	-5.24	9.88	
106	29.25	-53.81	-165.81	6.77	6.54	9.07	
105	2.25	-62.06	-137.94	-7.82	15.08	5.33	
107	353.19	-66.94	-131.06	-6.85	13.23	0.89	
107	353.56	-68.25	-143.88	-0.61	10.43	-1.81	
107	4.63	-65.44	-163.31	2.14	10.78	0.13	
106	30.12	-64.19	175.31	6.90	6.39	4.28	
108	43.81	-72.37	179.31	10.11	1.79	6.55	
105	59.50	-85.12	176.06	3.18	1.72	11.04	
106	77.94	-75.62	38.31	-8.41	-1.34	14.89	
105	99.87	-71.37	39.00	-9.75	-7.07	12.20	
106	123.19	-70.81	60.69	-3.46	-9.85	7.83	
107	132.19	-74.69	87.19	-0.61	-10.65	5.28	
105	124.37	-77.19	148.06	0.27	-8.15	5.26	
107	122.62	-63.81	179.25	2.90	-3.88	5.53	
106	124.06	-54.88	-178.25	4.34	-3.53	5.03	
106	107.06	-48.38	-168.56	2.73	-2.68	4.25	
105	84.44	-51.63	-157.25	1.97	-1.10	3.31	
105	63.13	-59.94	-139.06	1.83	0.64	2.66	
105	50.69	-66.50	-112.94	-0.26	2.52	2.34	
105	38.06	-66.44	-88.37	-2.86	3.39	2.20	
107	26.19	-69.94	-76.12	-3.63	4.58	1.23	
105	16.75	-77.94	-74.94	-4.42	5.66	1.50	
107	11.81	-82.06	-119.94	-6.92	5.36	3.80	
105	7.75	-72.06	-161.38	-7.62	5.32	8.04	
107	12.19	-47.81	-176.13	2.46	6.24	8.95	
105	32.63	-36.25	167.94	11.04	3.28	7.26	
106	122.44	-42.69	149.13	9.05	-0.85	8.15	
105	131.31	-64.37	142.06	5.28	-4.60	11.75	
105	116.56	-85.50	179.31	1.68	-9.31	16.88	
108	88.56	-66.25	-42.69	-2.44	-7.18	17.92	
106	67.62	-46.19	-26.00	-11.09	-2.11	15.85	
107	40.13	-46.44	-14.06	-15.29	6.78	14.10	
107	19.37	-68.75	-16.50	-10.56	15.24	14.33	
106	6.31	-73.50	-121.62	1.17	14.12	13.61	
105	21.75	-55.06	-160.38	10.43	7.54	10.78	
106	60.69	-47.69	-177.19	11.77	1.63	8.78	
106	96.31	-56.44	170.81	11.79	-0.27	7.85	
108	100.06	-71.87	-158.81	8.11	-2.61	11.37	
105	91.44	-69.31	-91.81	5.22	-9.43	13.87	
107	70.00	-46.19	-56.13	-4.45	-14.15	16.53	
107	46.13	-36.13	-40.44	-16.55	-6.17	17.89	
106	28.31	-48.81	-35.00	-14.08	6.97	15.14	
105	16.37	-72.44	-64.81	-7.15	14.16	14.60	
105	8.88	-62.50	-136.13	5.06	13.57	9.15	
105	28.50	-50.69	-154.81	13.49	8.80	4.95	
105	67.75	-52.13	-169.63	12.26	3.75	7.93	
107	97.19	-63.63	-176.63	9.97	0.49	9.81	
107	89.12	-66.00	-132.06	2.64	-2.72	12.84	
105	66.25	-52.06	-93.69	-4.81	-4.37	15.64	
107	54.75	-42.38	-60.63	-9.51	-3.52	13.72	
105	36.75	-32.94	-36.56	-14.52	3.28	13.73	
105	21.19	-48.25	-19.37	-14.23	12.10	14.43	
105	6.19	-74.94	-39.19	-13.24	10.56	13.43	
105	357.75	-70.19	-143.81	-3.28	4.69	10.81	
105	11.13	-61.50	-168.06	7.44	3.60	8.11	
107	36.63	-54.44	179.44	7.58	3.61	6.58	
105	65.37	-59.75	159.69	9.11	2.17	4.76	
106	84.94	-66.50	125.00	7.13	0.72	4.35	
108	93.12	-71.50	88.94	3.59	0.35	5.80	
105	104.00	-66.37	57.75	0.32	-0.59	5.44	
106	116.75	-59.75	43.38	-3.20	-4.71	3.63	
105	119.87	-62.69	34.31	-4.23	-5.69	3.22	
107	123.00	-68.00	29.75	-2.68	-4.56	3.15	
107	123.69	-75.94	33.31	-1.37	-4.67	3.17	
106	122.87	-84.06	4.69	0.09	-3.90	2.68	
107	121.06	-84.87	178.00	1.02	-3.43	2.33	
108	114.25	-76.25	-174.00	2.01	-3.58	2.40	
105	106.31	-71.37	-167.06	3.04	-3.31	2.37	
106	89.31	-66.75	-149.94	5.67	-5.39	4.10	
105	59.69	-55.94	-124.62	7.56	-7.29	8.08	
105	36.25	-54.56	-91.19	3.23	-3.93	11.77	
105	19.87	-49.63	-58.19	-4.15	3.49	12.63	
107	7.50	-49.81	-35.88	-8.34	8.93	9.92	
106	354.50	-59.88	-31.06	-7.82	8.70	7.96	
105	342.25	-74.31	-48.38	-4.00	5.73	7.21	
107	331.44	-73.06	-115.37	1.35	4.48	6.54	
105	334.13	-62.50	-143.69	5.65	4.88	5.48	
105	356.38	-57.44	-164.25	7.61	5.04	4.47	
105	27.62	-58.25	177.19	8.46	4.14	5.35	
105	56.81	-64.37	151.25	8.32	3.00	6.81	
105	72.62	-69.12	112.94	5.45	2.76	8.75	
107	93.62	-57.06	67.50	-0.47	-1.02	12.00	
106	115.37	-44.31	51.75	-4.96	-7.76	12.62	
106	137.81	-40.00	45.13	-4.33	-13.24	9.49	
107	143.75	-52.31	45.31	-2.53	-9.70	7.99	
105	154.00	-63.50	58.75	1.11	-5.22	8.10	
105	161.75	-66.00	100.62	6.20	-6.13	6.85	
106	156.81	-62.81	136.06	8.25	-4.15	4.96	
105	142.31	-56.13	155.13	7.13	-2.89	5.64	
106	117.25	-50.00	173.00	4.48	-2.77	7.10	
107	72.50	-50.81	-167.44	3.26	-2.23	8.89	
108	39.75	-62.19	-140.88	2.44	-0.80	10.86	
105	22.19	-69.06	-91.37	-3.15	2.16	10.80	
108	11.94	-67.19	-46.75	-10.11	5.35	7.24	
105	0.06	-66.75	-41.38	-11.94	7.69	4.63	
105	347.25	-72.25	-73.75	-8.46	7.92	6.12	
105	337.25	-64.19	-120.50	-1.11	6.74	7.17	
106	345.69	-51.50	-149.56	6.88	4.76	6.17	
107	17.44	-49.38	-168.06	11.01	1.18	3.59	
105	40.38	-53.63	-177.38	11.16	-1.23	2.45	
107	53.63	-67.69	171.31	9.23	-1.76	5.00	
107	58.81	-86.87	177.25	2.42	-6.08	9.11	
105	52.88	-75.69	-10.31	-5.33	-8.90	9.35	
105	42.25	-64.75	-8.56	-8.89	-5.27	5.86	
105	34.06	-63.50	-1.69	-8.49	-0.35	2.99	
105	28.94	-69.06	3.38	-4.80	2.25	1.91	
105	25.06	-77.31	-7.44	-1.90	1.62	1.66	
107	24.56	-84.25	-3.69	-0.07	-1.23	1.87	
105	24.69	-86.62	-176.94	2.29	-3.67	1.45	
107	20.75	-84.25	-176.94	3.72	-3.68	0.80	
106	16.56	-85.37	-178.88	2.86	-1.34	1.32	
106	11.63	-85.19	178.81	0.28	4.21	0.38	
105	10.69	-82.94	155.44	-1.48	7.21	-1.56	
105	12.94	-80.50	161.44	-0.50	4.97	-1.99	
106	16.37	-78.00	176.38	0.67	2.98	-0.98	
105	22.31	-76.31	-172.31	0.88	1.27	1.01	
108	33.69	-77.87	-172.50	1.71	-1.12	3.22	
106	46.94	-82.81	159.75	2.44	-3.91	4.60	
106	50.88	-87.06	177.63	1.95	-5.83	4.46	
107	47.19	-86.94	-1.37	-0.07	-4.97	3.71	
105	42.31	-83.12	-3.25	-2.35	-3.02	3.49	
105	37.13	-82.37	-29.12	-3.14	-1.39	2.82	
105	30.06	-82.31	-57.75	-2.64	-0.98	1.22	
105	20.00	-79.87	-96.94	-1.56	-0.02	-0.72	
105	14.19	-78.37	-118.81	0.25	2.43	-1.88	
107	12.56	-75.25	-135.06	2.01	2.50	-1.57	
107	12.00	-70.31	-138.38	3.36	0.10	-1.14	
105	18.87	-73.12	-146.75	2.61	-1.94	0.10	
107	20.37	-74.06	-144.94	1.40	-0.86	0.88	
105	26.62	-78.44	-150.94	1.98	0.53	1.98	
105	29.69	-81.62	-144.75	-0.29	0.79	4.12	
105	34.75	-84.31	-178.13	-3.34	1.03	5.07	
105	43.50	-85.87	178.69	-4.37	0.38	3.66	
105	57.50	-78.81	115.69	-0.83	-2.79	-1.55	
108	68.75	-71.19	108.19	-0.24	-11.02	-0.90	
107	61.25	-65.75	142.19	2.45	-7.61	5.93	
105	45.00	-58.63	165.94	9.58	-0.08	2.51	
108	19.19	-58.94	-171.50	7.39	-2.39	-2.83	
105	7.00	-63.94	-158.00	4.79	-3.02	0.26	
106	2.44	-73.06	-140.19	4.37	-2.68	2.77	
105	359.63	-78.06	-82.75	-0.18	-3.55	5.19	
107	356.44	-68.75	-18.75	-9.85	-3.65	9.16	
107	336.63	-69.12	-16.69	-15.85	5.62	8.82	
108	320.50	-84.62	-4.31	-6.87	15.35	5.85	
105	327.88	-76.31	179.88	4.60	13.01	4.96	
108	357.44	-65.19	160.00	6.70	7.99	6.09	
105	28.94	-62.94	147.00	7.51	4.64	7.44	
106	51.31	-69.25	121.44	7.62	2.38	7.61	
105	65.37	-67.87	80.06	0.90	-1.79	8.79	
105	82.75	-60.75	57.88	-8.46	-5.57	9.04	
107	100.06	-62.81	52.19	-8.42	-7.21	7.95	
105	110.25	-69.12	63.00	-2.20	-7.06	6.39	
107	121.44	-72.37	93.12	1.47	-7.60	4.95	
106	125.50	-68.19	118.69	3.44	-8.17	4.34	
107	120.56	-63.31	140.38	3.60	-4.33	3.57	
105	107.31	-58.06	155.63	4.14	-1.65	2.97	
105	84.75	-56.88	171.00	5.48	0.57	1.48	
105	69.69	-61.75	179.94	3.18	3.67	0.40	
105	71.87	-68.81	179.06	-0.44	4.54	0.65	
107	82.69	-74.31	169.75	-3.30	3.52	1.42	
105	94.31	-74.75	157.94	-2.95	3.09	1.55	
107	112.50	-72.37	137.19	-0.79	1.60	1.29	
106	131.56	-67.75	122.62	-2.23	-1.20	2.15	
106	152.63	-60.88	116.50	-5.84	-4.59	5.23	
105	172.50	-49.69	124.19	-2.14	-8.29	8.55	
106	185.44	-36.19	138.88	5.68	-7.63	8.24	
105	94.81	-28.56	152.44	7.68	-4.01	6.77	
105	84.12	-31.56	164.88	6.77	-2.64	8.28	
108	71.12	-45.69	-177.38	1.14	-1.87	10.58	
106	44.50	-60.50	-159.44	-11.00	2.82	8.35	
107	31.00	-65.50	-153.31	-11.99	7.02	3.73	
107	19.31	-61.25	-154.56	-5.33	9.16	-0.19	
106	30.50	-57.13	-176.94	-2.90	1.22	2.97	
105	27.62	-41.19	-173.38	3.26	-1.75	5.62	
106	16.25	-37.69	-174.06	7.36	0.80	0.91	
106	18.31	-39.56	-164.75	6.62	-3.04	-0.37	
108	330.94	-41.50	-153.44	5.65	-3.00	0.68	
106	329.13	-47.19	-143.50	4.02	-1.66	0.51	
107	338.38	-61.88	-134.56	-0.56	0.81	1.05	
107	347.94	-74.00	-115.06	-6.69	2.58	2.44	
106	355.94	-81.69	-101.25	-12.36	0.46	4.96	
105	347.94	-70.81	-146.13	-8.35	2.64	5.15	
105	352.88	-61.63	-176.38	6.14	1.63	4.67	
105	341.50	-58.56	-170.88	12.56	-1.06	2.94	
106	329.81	-63.00	-154.31	8.29	3.21	0.32	
106	323.25	-68.87	-122.69	1.57	6.50	0.38	
107	335.94	-76.62	-72.69	-3.40	5.33	1.71	
105	343.50	-73.87	-55.00	-3.77	0.80	3.55	
107	349.00	-73.75	-53.88	-1.76	0.81	2.58	
105	353.38	-75.25	-62.31	-3.66	3.98	1.85	
105	0.19	-75.00	-99.87	-6.63	8.52	3.85	
105	12.38	-68.69	-135.31	-4.98	7.89	7.09	
105	35.31	-62.31	-165.88	0.79	1.82	9.76	
105	64.06	-54.38	178.50	6.18	-3.57	7.45	
107	91.12	-55.13	171.56	6.05	-3.16	7.50	
107	108.87	-63.56	166.31	2.60	-2.75	7.65	
105	119.75	-70.50	158.94	1.33	-3.19	2.75	
107	131.69	-77.94	126.06	0.59	0.12	3.58	
106	145.56	-74.75	74.25	-5.20	1.17	7.08	
105	163.88	-68.69	68.56	-7.81	-2.71	8.90	
105	180.94	-63.56	84.19	-2.34	-6.46	7.29	
106	192.13	-60.38	105.25	3.00	-5.96	4.13	
107	195.31	-56.19	122.31	4.30	-4.81	3.14	
106	190.44	-52.19	134.75	4.94	-2.57	2.31	
107	177.75	-51.88	142.56	4.50	0.02	1.56	
108	164.25	-56.31	142.81	3.19	0.59	2.25	
105	155.00	-61.31	135.81	1.81	0.16	3.82	
106	148.00	-65.19	121.50	0.59	-0.09	2.96	
105	147.81	-64.87	96.12	-2.17	-5.07	2.50	
105	141.88	-66.25	82.06	-6.80	-8.18	3.93	
105	134.38	-68.81	93.19	-4.98	-3.39	3.22	
107	125.19	-69.00	121.25	0.11	0.24	1.77	
107	121.00	-62.94	134.31	1.70	-1.57	1.56	
105	110.25	-58.00	144.81	2.66	-3.45	2.17	
107	85.62	-55.31	160.63	4.04	-1.67	2.17	
105	57.56	-57.38	173.75	5.80	0.38	1.37	
105	36.69	-67.06	-176.31	6.37	1.49	2.03	
105	27.44	-79.62	-165.31	5.43	2.20	3.45	
105	26.81	-85.56	-3.38	1.89	4.03	2.38	
105	37.13	-74.31	6.31	-1.63	5.20	2.04	
107	52.75	-64.25	6.56	-2.13	3.93	2.79	
107	72.56	-57.50	0.63	-3.90	1.42	4.46	
105	90.00	-58.56	-3.94	-5.18	-2.47	8.45	
107	105.25	-68.69	-8.13	-4.36	-5.29	10.31	
105	116.44	-81.50	16.94	-0.65	-6.48	9.55	
105	115.94	-80.37	147.44	5.46	-6.15	6.91	
106	104.81	-71.44	171.69	8.29	-3.72	3.29	
105	86.87	-68.00	-172.88	6.51	-1.68	2.55	
107	68.75	-68.19	-158.63	4.37	-0.47	2.77	
106	54.19	-74.37	-137.13	2.16	-0.11	3.50	
108	40.31	-76.19	-92.56	-1.28	-0.24	6.13	
106	25.50	-72.19	-69.31	-3.65	1.11	6.39	
107	11.81	-71.69	-61.56	-5.28	3.88	4.98	
105	357.75	-72.00	-86.44	-4.38	7.27	3.63	
106	354.31	-68.44	-121.81	0.27	7.45	1.60	
105	4.63	-63.63	-148.19	4.96	4.04	0.87	
105	27.37	-64.44	-168.38	7.06	1.21	2.45	
107	50.88	-69.25	175.81	7.43	-0.73	4.05	
106	63.94	-80.31	158.81	4.84	-1.95	4.53	
106	76.81	-77.50	44.56	-4.19	-4.88	6.37	
107	81.37	-73.25	29.37	-11.86	-6.82	7.34	
105	82.31	-81.37	72.12	-6.11	-5.06	5.89	
105	77.44	-74.12	154.56	3.59	-2.61	3.95	
105	66.50	-66.19	170.81	6.57	0.06	1.89	
105	50.94	-65.00	-173.31	4.28	2.77	0.35	
105	52.69	-67.37	-175.00	0.56	1.06	0.72	
107	57.75	-66.25	179.63	1.46	-2.85	1.09	
105	58.56	-64.19	178.69	7.27	-4.11	-0.62	
107	54.94	-63.19	173.38	12.17	-2.49	1.58	
107	48.88	-78.50	154.50	8.91	0.69	6.07	
105	58.69	-68.00	39.44	3.07	-0.02	8.37	
105	58.81	-38.00	18.06	1.22	-2.70	12.38	
105	62.50	-5.75	18.69	-1.90	-3.96	16.50	
106	77.81	25.31	13.63	-9.43	-9.31	12.44	
105	86.19	40.19	17.06	-12.06	-11.69	6.71	
108	75.87	32.44	35.94	-3.68	-5.21	5.80	
107	63.00	7.13	39.06	8.65	1.88	0.01	
106	60.19	10.81	36.75	12.01	2.04	-7.47	
107	50.63	36.44	37.44	5.88	-0.15	-5.09	
106	38.94	51.44	59.00	1.62	1.09	2.05	
105	46.81	54.25	86.69	2.21	-0.18	5.96	
105	73.62	57.06	92.00	1.82	-2.58	5.31	
105	98.62	57.19	76.87	-1.54	-3.13	1.45	
107	107.87	46.63	55.69	-0.42	0.06	-0.73	
105	114.12	40.44	54.19	3.10	3.33	-2.13	
107	110.69	35.13	58.06	4.03	1.64	-5.82	
105	101.12	37.75	66.44	1.05	-0.69	-3.46	
107	77.87	28.19	64.69	-1.35	0.15	-0.33	
105	69.87	26.87	62.63	0.54	0.41	-0.07	
105	72.00	28.94	62.81	1.92	0.52	0.21	
105	82.12	33.94	63.00	1.27	0.32	-0.54	
106	94.00	38.00	59.00	-0.52	-1.78	0.56	
107	101.37	41.31	57.75	-0.99	-1.08	0.63	
