Orientation Sensor Raw Data Test

Current Temperature: 29 C

Calibration status values: 0=uncalibrated, 3=fully calibrated
time	eul_z	eul_y	eul_x	linA_x	linA_y	linA_z	cal_sys	cal_gyr	cal_acc	cal_mag
1658	0.00	0.00	0.00	0.00	0.00	0.00	0	0	0	0
50	0.00	0.00	0.00	0.00	0.00	0.00	0	0	0	0
44	0.00	0.00	0.00	0.00	0.00	0.00	0	0	0	0
45	0.00	0.00	0.00	0.00	0.00	0.00	0	0	0	0
43	0.00	0.00	0.00	0.00	0.00	0.00	0	0	0	0
44	0.00	0.00	0.00	0.00	0.00	0.00	0	0	0	0
44	0.00	0.00	0.00	0.00	0.00	0.00	0	0	0	0
43	0.00	0.00	0.00	0.00	0.00	0.00	0	0	0	0
44	0.00	0.00	0.00	0.00	0.00	0.00	0	0	0	0
44	0.00	0.00	0.00	0.00	0.00	0.00	0	0	0	0
43	0.00	0.00	0.00	0.00	0.00	0.00	0	0	0	0
44	351.06	-4.94	1.19	0.17	-0.71	0.28	0	0	0	0
48	351.13	-5.25	0.88	0.30	-1.53	0.45	0	0	0	0
47	350.88	-5.81	0.25	0.13	-1.61	0.02	0	0	0	0
48	349.88	-6.19	-1.19	0.08	-1.12	-0.29	0	0	0	0
50	350.00	-6.25	-1.56	0.15	-0.68	-0.21	0	0	0	0
50	351.38	-6.00	-0.44	0.18	-0.74	-0.00	0	0	0	0
50	353.75	-6.06	0.19	0.29	-1.06	0.23	0	0	0	0
48	356.38	-6.13	-0.25	0.33	-1.38	0.46	0	0	0	0
49	358.13	-6.56	-1.37	0.30	-1.03	0.45	0	0	0	0
49	0.37	-7.44	-2.19	0.27	-1.38	-0.06	0	0	0	0
47	1.00	-7.56	-2.81	0.31	-1.64	-0.25	0	0	0	0
48	1.69	-7.50	-2.75	0.25	-0.81	0.21	0	0	0	0
47	2.81	-7.69	-2.25	0.22	-0.77	0.51	0	0	0	0
46	4.94	-8.06	-2.31	0.27	-1.02	0.29	0	0	0	0
48	7.00	-8.25	-2.25	0.29	-1.00	-0.05	0	0	0	0
48	9.31	-7.94	-1.88	0.48	-1.28	-0.04	0	0	0	0
48	10.81	-7.44	-1.31	0.61	-1.55	0.23	0	0	0	0
47	12.31	-7.00	-1.25	0.66	-1.52	0.50	0	0	0	0
48	12.88	-6.63	-1.12	0.61	-1.44	0.74	0	0	0	0
48	12.88	-6.88	-1.50	0.48	-1.04	0.62	0	0	0	0
47	13.13	-7.25	-2.13	0.29	-0.73	0.11	0	0	0	0
48	13.31	-7.38	-2.31	0.22	-0.82	-0.21	0	0	0	0
50	13.38	-7.13	-2.00	0.37	-1.00	0.04	0	0	0	0
48	13.63	-6.94	-1.63	0.35	-1.13	0.14	0	0	0	0
47	13.75	-6.81	-1.75	0.34	-1.07	-0.13	0	0	0	0
49	13.75	-6.25	-1.25	0.53	-0.99	0.01	0	0	0	0
48	13.81	-5.94	-1.25	0.54	-0.93	0.33	0	0	0	0
47	13.75	-5.31	-0.44	0.52	-0.90	0.42	0	0	0	0
49	14.00	-5.19	-0.50	0.56	-0.97	0.26	0	0	0	0
47	14.00	-4.81	-0.06	0.47	-0.98	0.06	0	0	0	0
49	13.88	-4.25	0.31	0.50	-0.96	0.26	0	0	0	0
46	13.81	-4.00	0.69	0.51	-0.97	0.38	0	0	0	0
47	13.63	-3.63	1.25	0.30	-0.93	0.40	0	0	0	0
47	13.56	-3.75	0.94	0.13	-0.74	0.32	0	0	0	0
46	13.56	-4.00	0.37	0.06	-0.48	0.11	0	0	0	0
47	13.69	-4.06	0.44	0.08	-0.48	0.23	0	0	0	0
47	13.63	-4.50	0.69	0.20	-0.56	0.06	0	0	0	0
47	13.56	-4.25	0.81	0.39	-0.55	0.06	0	0	0	0
46	13.88	-4.19	1.00	0.46	-0.53	0.36	0	0	0	0
47	14.31	-3.75	1.00	0.48	-0.68	0.66	0	0	0	0
47	15.00	-4.19	0.75	0.48	-0.79	0.60	0	0	0	0
47	15.56	-5.00	-0.12	0.30	-0.55	-0.30	0	0	0	0
49	15.88	-5.56	-1.06	0.19	-0.51	-0.26	0	0	0	0
49	15.38	-5.50	-0.37	0.07	-0.50	0.07	0	0	0	0
48	15.38	-5.25	0.50	0.05	-0.41	0.40	0	0	0	0
46	15.75	-4.13	-0.63	-0.35	-0.37	0.39	0	0	0	0
49	15.44	-3.50	-0.44	-0.07	-0.46	0.04	0	0	0	0
49	14.88	-4.06	1.06	0.20	-0.56	0.25	0	0	0	0
46	14.06	-4.75	3.88	0.40	-0.61	0.05	0	0	0	0
48	13.63	-5.31	6.13	0.66	-0.97	0.28	0	0	0	0
47	14.00	-5.00	5.88	0.11	-0.88	0.68	0	0	0	0
47	14.06	-4.50	5.88	0.10	-0.51	0.30	0	0	0	0
46	14.31	-3.88	4.94	0.31	-0.30	-0.21	0	0	0	0
48	14.00	-4.13	3.94	0.34	-0.40	-0.23	0	0	0	0
48	13.81	-3.75	2.44	0.09	-0.48	0.03	0	0	0	0
46	13.88	-3.06	1.19	0.13	-0.44	0.24	0	0	0	0
47	14.19	-2.63	0.19	0.49	-0.49	0.29	0	0	0	0
47	15.00	-2.69	0.12	0.21	-0.69	0.38	0	0	0	0
46	15.13	-2.81	0.69	0.04	-0.35	0.16	0	0	0	0
48	15.19	-2.69	2.88	0.08	0.02	0.04	0	0	0	0
46	15.38	-2.31	6.13	-0.11	-0.17	0.16	0	0	0	0
48	15.06	-2.88	9.13	-0.01	-0.68	0.18	0	0	0	0
47	14.50	-3.56	10.50	0.04	-0.60	0.30	0	0	0	0
48	13.94	-3.94	9.44	-0.01	-0.35	0.28	0	0	0	0
48	13.63	-4.25	6.50	-0.09	-0.81	0.40	0	0	0	0
48	13.06	-4.69	2.63	-0.11	-0.49	0.02	0	0	0	0
47	12.19	-4.69	0.00	-0.68	-0.52	0.26	0	0	0	0
48	10.56	-4.06	-3.88	-4.61	-0.68	0.68	0	0	0	0
50	11.13	-2.81	-8.81	-10.55	-1.06	1.50	0	0	0	0
49	14.56	-4.81	-10.56	-12.05	-0.91	1.98	0	0	0	0
51	19.37	-6.19	-12.50	-7.55	1.06	1.09	0	0	0	1
49	24.81	-7.25	-14.75	0.55	4.12	-1.06	0	0	0	1
49	29.81	-6.69	-15.69	11.57	5.29	-1.01	0	0	0	1
49	34.63	-4.94	-15.00	18.94	2.18	0.34	0	0	0	1
50	33.63	-5.75	-12.38	19.60	-0.53	-2.08	0	0	0	1
51	27.44	-3.06	-10.75	16.78	0.47	-4.76	0	0	0	1
50	16.44	-1.25	-9.50	9.64	4.40	-3.73	0	0	0	1
47	2.94	1.69	-9.31	-2.88	8.05	0.66	0	0	0	1
46	353.69	2.50	-9.25	-17.48	9.39	4.81	0	0	0	1
49	349.75	4.31	-10.31	-26.89	6.46	6.46	0	0	0	1
49	356.31	3.00	-9.75	-24.75	2.47	2.80	0	0	0	1
50	8.69	-1.50	-9.25	-12.91	4.12	-1.50	0	0	0	1
49	21.81	-6.50	-9.88	3.64	8.10	-1.48	0	0	0	1
48	30.87	-9.38	-11.06	23.34	7.87	3.36	0	0	0	1
48	33.31	-7.94	-11.19	30.48	3.09	1.82	0	0	0	1
49	28.31	-6.19	-10.75	22.05	1.41	-4.04	0	0	0	1
50	16.75	-4.38	-10.44	10.34	4.86	-2.72	0	0	0	1
51	2.81	-1.31	-10.38	-8.72	6.32	4.30	0	0	0	1
47	354.44	2.13	-8.88	-24.29	5.84	7.36	0	0	0	1
49	355.69	2.38	-7.56	-26.63	4.40	2.76	0	0	0	1
49	4.50	-0.37	-7.06	-20.06	3.36	-1.11	0	0	0	1
49	15.88	-4.69	-7.25	-6.76	4.81	-1.55	0	0	0	1
48	25.87	-5.88	-8.31	11.88	6.01	1.10	0	0	0	1
48	31.69	-6.63	-8.19	28.30	4.06	0.95	0	0	0	1
48	30.87	-4.31	-7.63	29.43	1.24	-3.24	0	0	0	1
49	21.69	-3.38	-7.56	19.18	3.03	-4.63	0	0	0	1
49	8.13	-2.44	-7.50	5.00	7.34	-1.22	0	0	0	1
47	355.69	-1.00	-7.56	-15.77	8.63	5.36	0	0	0	1
50	352.94	2.31	-7.00	-31.33	5.42	7.28	0	0	0	1
48	359.69	0.94	-5.75	-27.63	2.94	0.98	0	0	0	1
49	9.19	-2.38	-5.69	-12.46	4.96	-1.30	0	0	0	1
49	21.06	-6.44	-6.13	6.94	6.46	0.78	0	0	0	1
48	30.25	-8.31	-5.81	29.04	5.36	1.72	0	0	0	1
47	29.81	-5.88	-4.94	36.16	3.98	-2.26	0	0	0	1
49	19.37	-3.94	-4.94	20.35	5.26	-5.51	0	0	0	1
49	5.19	-2.63	-6.25	-4.18	6.72	0.50	0	0	0	1
46	357.56	-1.00	-6.63	-22.69	6.43	6.68	0	0	0	1
51	355.44	0.63	-6.38	-29.42	4.75	5.46	0	0	0	1
48	2.00	-1.37	-5.94	-23.47	3.60	0.03	0	0	0	1
49	12.88	-6.00	-6.94	-8.50	5.17	-1.80	0	0	0	1
48	24.19	-8.38	-7.69	12.82	5.87	1.14	0	0	0	1
48	31.25	-9.31	-7.25	33.58	4.63	2.13	0	0	0	1
48	28.25	-7.19	-7.56	35.01	3.11	-2.23	0	0	0	1
49	16.37	-6.19	-8.06	17.26	5.51	-2.66	0	0	0	1
48	1.37	-4.69	-8.06	-6.91	8.88	3.21	0	0	0	1
47	352.19	-3.06	-7.81	-25.45	7.62	5.10	0	0	0	1
50	353.00	-2.19	-6.56	-28.74	4.25	1.15	0	0	0	1
51	1.56	-4.50	-6.25	-18.85	3.74	-3.04	0	0	0	1
48	13.50	-9.06	-6.38	-4.76	5.52	-3.30	0	0	0	1
49	23.44	-9.94	-7.25	13.05	6.52	0.10	0	0	0	1
48	32.94	-10.31	-7.94	32.18	4.86	2.71	0	0	0	1
48	31.00	-7.69	-9.06	34.20	3.11	-1.15	0	0	0	1
49	19.06	-5.56	-10.00	15.44	5.66	-1.60	0	0	0	1
51	4.63	-3.06	-9.69	-4.97	7.72	3.81	0	0	0	1
47	354.31	-0.06	-8.25	-16.31	5.17	4.11	0	0	0	1
49	351.06	2.50	-6.94	-16.85	2.18	0.82	0	0	0	1
49	352.06	2.13	-6.69	-10.07	1.26	-0.62	0	0	0	1
50	354.81	1.44	-8.06	-3.69	1.13	0.39	0	0	0	1
48	357.31	0.37	-8.88	-0.50	0.56	1.00	0	0	0	1
47	0.44	-0.75	-9.31	2.07	-0.14	0.56	0	0	0	1
47	2.69	-1.44	-9.63	4.74	-0.41	-0.02	0	0	0	1
49	2.69	-1.94	-9.81	3.51	-1.04	0.26	0	0	0	1
46	2.69	-1.63	-9.81	0.58	-1.36	0.67	0	0	0	1
47	2.81	-1.06	-9.38	-0.30	-0.97	0.24	0	0	0	1
48	3.06	-0.75	-9.19	-0.34	-0.60	0.11	0	0	0	1
48	3.19	-0.44	-9.13	-0.25	-0.48	0.11	0	0	0	1
47	3.38	0.00	-9.44	-0.26	-0.64	0.42	0	0	0	1
47	3.81	0.06	-9.50	0.25	-0.56	0.48	0	0	0	1
46	3.88	-0.12	-9.50	0.54	-0.53	0.09	0	0	0	1
46	3.94	0.12	-8.75	0.32	-0.74	0.17	0	0	0	1
46	3.63	0.19	-7.81	-0.04	-0.85	0.27	0	0	0	1
48	3.56	0.56	-7.50	-0.24	-0.77	0.12	0	0	0	1
46	3.56	0.63	-6.94	-0.10	-0.64	0.08	0	0	0	1
47	3.63	0.94	-6.81	-0.06	-0.35	-0.05	0	0	0	1
48	3.69	0.88	-7.00	-0.03	-0.24	0.03	0	0	0	1
47	3.81	0.94	-7.13	0.10	-0.38	0.25	0	0	0	1
45	4.06	1.00	-7.38	0.06	-0.36	0.17	0	0	0	1
46	4.19	1.00	-7.69	-0.01	-0.45	0.30	0	0	0	1
47	4.50	1.19	-7.88	-0.02	-0.51	0.22	0	0	0	1
46	4.56	1.06	-8.13	0.09	-0.38	0.11	0	0	0	1
46	4.69	1.19	-8.19	0.15	-0.30	0.32	0	0	0	1
46	4.75	1.44	-8.13	0.08	-0.37	0.25	0	0	0	1
45	4.75	1.44	-8.06	0.03	-0.32	0.19	0	0	0	1
47	4.75	1.56	-8.06	0.03	-0.14	0.27	0	0	0	1
46	4.81	1.69	-8.00	0.06	0.16	0.46	0	0	0	1
44	4.75	1.69	-7.63	0.26	0.42	0.97	0	0	0	1
45	4.69	2.19	-6.94	0.35	-1.58	1.31	0	0	0	1
46	4.31	2.06	-6.38	-0.14	-7.16	2.24	0	0	0	1
47	3.94	0.88	-5.38	-0.99	-9.53	1.26	0	0	0	1
46	4.25	-0.25	-4.63	-1.13	-1.54	-0.70	0	0	0	1
49	3.06	-1.75	-3.38	-0.15	12.90	1.28	0	0	0	1
48	3.75	-2.69	-1.44	0.87	19.58	1.98	0	0	0	1
46	4.69	-1.94	3.06	0.90	12.80	-2.80	0	0	0	1
47	6.25	-1.37	3.94	0.51	-0.86	-6.97	0	0	0	1
48	8.44	3.06	-0.75	0.61	-17.96	-0.82	0	0	0	1
48	8.00	2.50	-0.44	0.11	-23.80	4.46	0	0	0	1
46	6.94	0.37	2.44	-1.13	-12.83	-2.28	0	0	0	1
48	5.00	-3.81	3.38	-2.83	2.90	-5.95	0	0	0	1
47	5.81	-2.19	-0.88	2.15	21.07	6.32	0	0	0	1
46	7.81	0.63	1.00	4.65	24.54	7.06	0	0	0	1
45	7.94	0.50	3.13	0.76	10.60	-4.33	0	0	0	1
46	10.69	3.63	1.88	1.47	-7.42	-5.69	0	0	0	1
46	12.88	5.13	-1.94	2.63	-22.98	-0.82	0	0	0	1
49	10.50	3.88	-1.63	-0.80	-23.88	1.65	0	0	0	1
50	8.00	-1.06	0.75	-3.36	-9.27	-1.71	0	0	0	1
48	5.50	-2.06	0.94	-0.64	16.27	1.49	0	0	0	1
46	6.94	-2.13	-0.31	2.50	27.33	2.75	0	0	0	1
47	7.31	-0.56	1.31	1.88	15.78	-3.26	0	0	0	1
47	8.75	1.31	0.19	-0.26	0.05	-5.40	0	0	0	1
45	12.13	5.13	-4.13	1.41	-17.69	1.63	0	0	0	1
48	11.81	5.50	-6.63	0.35	-26.40	9.24	0	0	0	1
48	9.00	2.19	-2.13	-1.42	-18.01	4.68	0	0	0	1
48	5.69	-2.00	2.31	-0.10	0.78	-1.87	0	0	0	1
47	4.38	-2.69	2.56	2.25	22.15	2.65	0	0	0	1
46	5.19	-2.69	2.19	3.45	27.34	2.55	0	0	0	1
46	5.75	-1.75	4.44	1.13	14.66	-3.39	0	0	0	1
46	7.75	0.94	4.13	-0.05	-0.52	-4.06	0	0	0	1
47	12.50	5.63	0.12	3.60	-18.84	0.70	0	0	0	1
47	11.19	7.13	-0.63	2.70	-27.16	5.77	0	0	0	1
47	7.63	4.06	2.88	-2.20	-14.81	0.27	0	0	0	1
47	4.38	-0.88	5.56	-3.26	2.75	-5.50	0	0	0	1
47	4.56	-0.94	1.88	2.08	21.81	3.86	0	0	0	1
46	4.81	-0.25	2.13	6.21	28.80	8.24	0	0	0	1
45	4.88	0.81	4.38	1.93	15.76	-0.36	0	0	0	1
47	6.81	4.00	4.00	-0.95	-0.30	-4.85	0	0	0	1
47	12.25	10.00	-1.12	1.72	-16.18	-1.53	0	0	0	1
49	13.06	11.25	-2.94	2.77	-25.02	5.49	0	0	0	1
49	9.69	8.19	1.94	0.17	-19.02	3.98	0	0	0	1
46	6.06	3.44	6.94	-1.44	-2.91	-2.12	0	0	0	1
47	4.25	2.75	6.94	0.52	17.14	3.28	0	0	0	1
44	4.13	2.19	7.38	2.48	23.53	5.67	0	0	0	1
45	4.38	2.38	8.44	0.47	14.65	-1.74	0	0	0	1
46	6.38	4.94	7.31	-0.63	3.29	-4.32	0	0	0	1
45	9.69	8.75	4.88	1.21	-9.32	-3.50	0	0	0	1
46	11.50	11.63	1.31	1.83	-19.10	1.17	0	0	0	1
49	9.31	9.31	4.00	-0.88	-18.51	3.27	0	0	0	1
46	7.88	6.50	7.13	-0.89	-7.43	-0.90	0	0	0	1
47	5.25	3.00	9.31	-0.38	4.89	-1.22	0	0	0	1
46	4.19	1.06	8.44	0.66	15.51	5.05	0	0	0	1
44	4.31	0.63	8.19	2.81	18.59	6.02	0	0	0	1
45	4.19	1.00	9.31	1.49	12.92	-0.47	0	0	0	1
46	4.38	1.75	8.56	-0.78	5.64	-3.85	0	0	0	1
45	6.94	5.13	5.88	-1.16	-2.65	-3.16	0	0	0	1
47	9.88	7.38	2.50	0.39	-7.98	1.11	0	0	0	1
45	13.31	9.44	0.69	1.76	-8.17	4.45	0	0	0	1
46	14.94	9.81	0.44	1.87	-6.30	3.45	0	0	0	1
45	15.50	10.13	1.88	0.83	-3.74	0.62	0	0	0	1
47	15.06	10.13	3.25	-0.65	-1.50	-1.10	0	0	0	1
50	14.44	9.44	4.19	-1.06	-0.16	-0.62	0	0	0	1
47	14.25	9.00	4.50	-0.54	0.21	-0.01	0	0	0	1
47	13.94	8.94	4.56	-0.30	-0.14	-0.23	0	0	0	1
48	13.56	9.13	4.38	-0.35	-0.63	-0.38	0	0	0	1
47	13.13	9.00	4.13	-0.14	-0.73	0.46	0	0	0	1
47	12.50	8.69	4.38	0.05	-0.30	0.95	0	0	0	1
46	12.13	8.63	4.63	-0.24	0.13	0.58	0	0	0	1
46	12.13	8.50	4.63	-0.37	0.32	0.22	0	0	0	1
45	12.25	8.50	4.50	-0.23	0.15	-0.09	0	0	0	1
47	12.44	8.63	4.44	-0.05	0.00	-0.15	0	0	0	1
48	12.44	8.63	4.13	0.03	-0.07	-0.02	0	0	0	1
46	12.31	8.50	3.94	-0.08	-0.21	0.29	0	0	0	1
47	12.13	8.56	3.69	-0.17	-0.33	0.58	0	0	0	1
47	12.06	8.50	3.75	-0.36	-0.50	0.50	0	0	0	1
46	12.25	8.38	3.88	-0.43	-0.57	0.24	0	0	0	1
47	12.44	8.31	4.13	-0.22	-0.45	0.12	0	0	0	1
47	12.63	8.31	4.19	-0.06	-0.28	0.12	0	0	0	1
48	12.75	8.19	4.25	-0.07	-0.18	0.18	0	0	0	1
45	12.75	8.06	4.31	-0.15	-0.25	0.23	0	0	0	1
47	12.88	8.00	4.44	-0.19	-0.25	0.28	0	0	0	1
48	13.06	7.88	4.63	-0.15	-0.17	0.28	0	0	0	1
46	13.25	7.75	4.88	-0.12	-0.14	0.01	0	0	0	1
47	13.44	7.63	4.94	-0.15	-0.17	-0.17	0	0	0	1
48	13.63	7.38	4.94	-0.09	-0.14	0.05	0	0	0	1
47	13.88	7.31	4.88	-0.01	-0.08	0.25	0	0	0	1
46	14.06	7.25	4.88	-0.14	-0.20	0.37	0	0	0	1
47	14.44	7.31	5.06	-0.21	-0.19	0.28	0	0	0	1
47	14.81	7.31	5.13	-0.19	-0.04	0.27	0	0	0	1
46	15.19	7.25	5.25	-0.23	0.02	0.33	0	0	0	1
46	15.56	7.19	5.31	-0.24	0.04	0.15	0	0	0	1
46	15.88	7.19	5.31	-0.21	-0.02	0.02	0	0	0	1
47	16.00	7.13	5.31	-0.16	-0.17	0.00	0	0	0	1
47	16.19	7.19	5.38	-0.11	-0.41	-0.08	0	0	0	1
48	16.31	7.06	5.56	0.05	-0.51	-0.16	0	0	0	1
47	16.37	7.19	5.63	0.25	-0.38	-0.07	0	0	0	1
46	16.37	7.50	5.56	0.32	-0.28	-0.10	0	0	0	1
47	16.12	7.69	5.19	0.29	-0.25	-0.29	0	0	0	1
47	15.63	7.81	4.63	0.08	-0.20	-0.07	0	0	0	1
47	15.13	7.81	4.06	-0.19	-0.26	0.81	0	0	0	1
46	13.88	7.75	3.25	-0.85	-0.92	2.73	0	0	0	1
47	12.00	9.00	1.25	-1.18	-2.15	8.28	0	0	0	1
47	9.69	11.50	0.50	-0.87	-3.41	14.79	0	0	0	1
48	7.44	8.44	4.44	1.78	-2.57	15.23	0	0	0	1
46	5.19	0.81	9.31	5.33	1.98	8.35	0	0	0	1
44	4.19	-4.50	13.69	5.17	5.84	-1.62	0	0	0	1
46	3.94	-7.38	15.56	3.13	5.89	-9.62	0	0	0	1
47	5.19	-10.25	17.69	2.79	3.97	-14.29	0	0	0	1
49	4.69	-9.69	19.81	2.92	3.41	-18.70	0	0	0	1
47	3.69	-6.75	16.00	1.68	2.85	-20.13	0	0	0	1
48	3.13	-3.94	8.56	1.30	2.17	-18.16	0	0	0	1
47	3.13	0.25	-0.94	2.08	3.17	-14.88	0	0	0	1
48	4.13	5.44	-14.63	2.70	7.13	-3.96	0	0	0	2
46	5.81	8.44	-25.12	2.00	9.94	11.10	0	0	0	2
47	7.50	9.00	-29.31	1.05	7.86	18.37	0	0	0	2
47	8.06	9.50	-31.50	0.89	5.80	21.11	0	0	0	2
46	7.44	8.56	-29.12	-1.12	3.31	20.85	0	0	0	2
48	7.44	7.50	-23.75	-1.34	3.04	14.41	0	0	0	2
48	7.19	6.50	-16.50	0.81	4.30	8.38	0	0	0	2
46	6.31	2.56	-7.94	1.91	4.75	4.89	0	0	0	2
44	5.38	-0.88	-1.81	2.21	4.69	3.55	0	0	0	2
46	5.38	-9.63	7.06	1.85	3.45	3.15	0	0	0	2
44	6.50	-15.69	14.06	1.37	3.32	1.83	0	0	0	2
48	9.88	-20.00	22.25	1.72	4.93	-1.53	0	0	0	2
48	13.38	-18.94	28.69	3.89	6.79	-7.09	0	0	0	2
49	16.25	-17.44	33.88	4.56	5.61	-11.05	0	0	0	3
49	18.00	-16.75	37.56	3.35	2.88	-12.07	0	0	0	3
50	19.19	-16.81	39.50	2.52	0.92	-11.90	0	0	0	3
50	18.81	-17.19	40.13	2.63	1.52	-11.76	0	0	0	3
50	17.75	-18.37	39.63	3.91	4.09	-11.15	0	0	0	3
50	15.06	-20.37	38.75	5.16	6.06	-10.00	0	0	0	3
50	9.81	-20.56	34.44	4.73	6.46	-8.36	0	0	0	3
48	6.25	-19.25	29.69	3.65	4.19	-6.05	0	0	0	3
48	1.81	-14.31	20.69	3.91	1.70	-3.53	0	0	0	3
47	359.19	-9.19	12.19	3.20	1.81	-0.65	0	0	0	3
49	358.13	-6.31	5.88	0.67	3.50	2.89	0	0	0	3
47	358.13	-4.75	2.88	-0.95	2.57	6.46	0	0	0	3
48	359.50	-3.44	0.00	-2.10	2.32	7.30	0	0	0	3
48	4.25	-1.50	-4.06	-0.30	4.35	7.29	0	0	0	3
47	6.44	-1.31	-8.31	2.10	3.36	9.39	0	0	0	3
46	6.81	-0.81	-9.94	0.98	0.70	11.00	0	0	0	3
46	9.44	1.00	-9.19	-0.20	0.96	8.81	0	0	0	3
46	9.63	2.13	-10.19	-1.50	0.33	7.93	0	0	0	3
47	10.00	2.69	-11.63	-2.68	-1.74	8.79	0	0	0	3
48	10.19	3.00	-13.75	-2.16	-1.58	7.76	0	0	0	3
49	6.69	1.88	-16.31	-1.07	-1.44	7.35	0	0	0	3
49	2.75	1.44	-20.06	-0.22	-0.05	7.14	0	0	0	3
48	0.56	3.06	-23.31	0.63	2.59	6.21	0	0	0	3
45	359.31	4.81	-26.25	0.74	4.49	5.10	0	0	0	3
48	356.44	5.25	-28.37	0.02	4.40	5.10	0	0	0	3
48	353.38	2.19	-28.12	-1.04	2.41	5.74	0	0	0	3
48	353.50	0.37	-27.94	-1.65	0.83	6.33	0	0	0	3
49	354.06	-5.13	-25.62	-0.64	0.75	5.53	0	0	0	3
50	357.44	-9.44	-22.37	1.58	2.03	2.91	0	0	0	3
50	2.25	-10.75	-16.56	2.92	4.10	-1.98	0	0	0	3
48	8.81	-10.06	-11.88	3.20	5.13	-5.73	0	0	0	3
49	14.44	-8.06	-5.94	3.28	4.73	-6.74	0	0	0	3
48	17.37	-3.00	1.37	2.28	3.69	-9.41	0	0	0	3
47	19.87	0.00	8.56	0.92	1.41	-12.79	0	0	0	3
46	21.37	1.56	11.81	0.60	-1.43	-14.71	0	0	0	3
49	22.31	1.44	13.94	-0.53	-3.71	-13.35	0	0	0	3
50	22.44	0.06	14.25	-0.72	-4.11	-11.63	0	0	0	3
50	20.94	-2.06	12.00	0.13	-3.18	-10.48	0	0	0	3
50	19.62	-4.94	10.06	0.83	-1.05	-8.80	0	0	0	3
49	17.12	-9.94	9.63	1.51	2.25	-6.98	0	0	0	3
47	13.00	-11.63	8.69	0.92	3.12	-4.74	0	0	0	3
47	9.75	-10.25	7.38	0.13	2.36	-3.06	0	0	0	3
47	7.25	-9.69	6.94	0.33	0.61	-2.17	0	0	0	3
46	5.25	-8.31	5.88	-0.12	-0.38	-1.64	0	0	0	3
47	5.56	-4.25	3.75	-0.11	-0.41	-1.37	0	0	0	3
49	5.94	0.63	2.69	0.34	-0.49	1.04	0	0	0	3
45	6.81	1.50	3.31	-0.72	0.74	1.99	0	0	0	3
45	8.31	4.88	3.06	-0.72	1.92	0.71	0	0	0	3
44	9.94	7.50	2.63	0.14	3.93	1.36	0	0	0	3
44	11.25	7.88	-0.12	1.02	5.18	2.21	0	0	0	3
46	13.31	8.25	-3.38	2.28	4.20	5.11	0	0	0	3
45	14.19	6.69	-7.44	2.54	2.37	8.23	0	0	0	3
46	14.69	4.75	-10.50	1.44	0.62	9.54	0	0	0	3
47	15.38	4.63	-11.56	0.10	0.44	8.10	0	0	0	3
46	15.50	5.00	-13.38	-0.90	0.28	6.91	0	0	0	3
48	15.75	5.19	-14.38	-0.42	-0.91	8.01	0	0	0	3
49	16.44	5.63	-14.63	0.69	-1.25	8.34	0	0	0	3
49	15.88	5.56	-14.94	0.69	-1.40	7.33	0	0	0	3
47	12.75	5.56	-14.88	0.74	-0.28	6.47	0	0	0	3
48	9.13	6.25	-14.00	0.70	1.83	5.37	0	0	0	3
46	7.38	8.13	-14.56	0.06	2.69	4.25	0	0	0	3
45	4.69	8.50	-13.94	-0.50	3.22	3.77	0	0	0	3
47	3.88	8.75	-13.13	-0.67	3.33	2.66	0	0	0	3
47	4.06	8.19	-14.00	0.03	2.46	2.32	0	0	0	3
45	2.25	5.69	-12.63	-0.41	0.38	2.13	0	0	0	3
47	359.69	0.63	-11.94	-1.03	-1.16	3.24	0	0	0	3
50	358.38	-2.38	-8.44	0.14	-0.21	3.75	0	0	0	3
50	358.63	-6.06	-5.50	2.23	1.71	2.69	0	0	0	3
47	359.25	-8.38	-2.19	3.11	3.31	1.46	0	0	0	3
48	2.81	-11.25	2.81	3.23	5.37	-0.11	0	0	0	3
47	7.75	-11.19	8.88	2.86	6.40	-2.88	0	0	0	3
46	11.25	-9.00	14.63	2.20	5.68	-6.68	0	0	0	3
48	13.94	-6.44	21.62	0.81	4.21	-12.53	0	0	0	3
49	17.69	-4.50	25.44	0.63	-0.07	-16.74	0	0	0	3
50	18.25	-4.56	28.19	0.46	-3.83	-16.78	0	0	0	3
50	18.00	-4.75	27.25	-0.72	-3.01	-13.98	0	0	0	3
51	16.62	-8.06	27.25	0.71	1.04	-11.58	0	0	0	3
49	12.75	-9.50	24.19	0.82	4.21	-10.34	0	0	0	3
49	8.94	-9.13	19.87	-0.26	4.89	-7.45	0	0	0	3
48	5.69	-6.63	13.19	0.43	3.66	-5.10	0	0	0	3
46	4.13	-4.38	8.00	2.67	1.26	-3.38	0	0	0	3
46	2.69	-2.69	3.50	2.39	0.92	-2.25	0	0	0	3
45	2.69	0.19	-0.75	0.81	1.35	-0.82	0	0	0	3
47	4.00	0.88	25.81	7.22	-3.41	-1.97	0	0	0	3
47	355.50	14.00	42.50	1.03	-3.81	-13.06	0	0	0	3
51	8.06	23.56	40.56	-1.55	-6.96	-3.50	0	0	0	3
48	10.13	21.06	37.94	6.62	-10.58	13.45	0	0	0	3
50	8.56	21.56	36.19	-0.82	-4.47	4.05	0	0	0	3
48	5.50	18.62	32.00	-3.64	-0.33	-0.24	0	0	0	3
49	3.94	16.12	20.81	-0.68	0.86	0.70	0	0	0	3
47	359.69	11.06	13.69	-1.44	2.47	-0.29	0	0	0	3
50	0.00	10.63	5.38	-0.47	1.65	2.27	0	0	0	3
46	358.25	7.13	5.56	1.29	0.43	2.53	0	0	0	3
45	359.50	6.31	2.94	1.48	1.30	2.85	0	0	0	3
46	3.63	8.81	-0.19	0.82	0.47	2.10	0	0	0	3
45	3.88	8.44	0.63	0.06	0.63	0.51	0	0	0	3
43	7.00	9.56	-1.69	0.32	0.73	1.81	0	0	0	3
45	8.38	10.00	-3.81	0.34	0.21	2.24	0	0	0	3
46	8.56	9.81	-3.56	-0.36	-1.25	0.83	0	0	0	3
46	9.75	11.00	-4.31	-1.32	-2.10	0.25	0	0	0	3
48	11.31	11.44	-5.06	-1.53	-1.21	-0.36	0	0	0	3
51	12.19	10.63	-6.31	-0.54	-0.57	-0.96	0	0	0	3
50	13.38	10.13	-8.00	-0.22	-0.84	-1.15	0	0	0	3
49	12.75	8.75	-9.56	-0.38	-0.87	-0.84	0	0	0	3
49	13.06	7.94	-11.81	-0.17	-0.66	-0.26	0	0	0	3
50	12.38	6.38	-13.25	-0.25	-0.50	-0.35	0	0	0	3
50	11.69	6.00	-15.81	-0.29	-0.50	0.11	0	0	0	3
48	218.69	5.50	-18.12	-0.52	-0.80	0.18	0	0	0	3
51	218.50	4.94	-18.87	-0.43	-0.93	0.15	0	0	0	3
50	218.44	5.25	-18.31	-0.22	-0.68	-0.01	0	0	0	3
51	215.75	5.44	-17.44	-0.64	-0.24	0.42	0	0	0	3
49	216.19	5.00	-18.31	-0.72	-0.34	0.40	0	0	0	3
50	215.56	4.81	-16.37	-0.58	-0.44	0.28	0	0	0	3
51	214.50	4.25	-16.62	-0.46	-0.11	0.38	0	0	0	3
50	215.50	5.00	-17.62	-0.38	-0.21	-0.08	0	0	0	3
50	215.81	4.69	-17.94	-0.64	-0.17	0.24	0	0	0	3
50	215.56	4.19	-18.44	-0.27	-0.16	0.31	3	0	0	3
51	216.06	5.38	-18.81	0.29	-0.05	0.36	3	0	0	3
48	215.63	5.38	-19.69	0.16	0.11	0.12	3	0	0	3
47	215.63	5.44	-19.75	0.07	-0.25	0.05	3	0	0	3
50	215.75	6.69	-18.44	-0.26	-0.10	0.21	3	0	0	3
50	215.31	6.75	-17.50	-0.88	0.35	-0.73	3	0	0	3
50	215.19	6.56	-17.25	-0.50	0.11	-1.09	3	0	0	3
49	216.00	6.38	-16.94	-0.69	-0.31	-0.80	3	0	0	3
51	216.63	6.94	-16.69	-0.90	-0.35	0.03	3	0	0	3
51	216.69	7.13	-18.75	-0.32	-0.07	0.10	3	0	0	3
50	216.06	5.06	-20.94	0.41	0.39	0.32	3	0	0	3
47	216.38	0.88	-20.25	0.23	-0.98	0.05	3	0	0	3
49	215.38	-0.88	-21.12	-0.60	-1.26	-1.51	3	0	0	3
52	214.06	0.44	-18.87	-0.44	0.23	-0.42	3	0	0	3
50	214.31	1.00	-17.25	-0.68	0.16	0.37	3	0	0	3
48	215.19	0.56	-15.94	-0.83	-0.20	0.28	3	0	0	3
51	216.31	-0.12	-14.50	-0.88	-1.09	0.18	3	0	0	3
51	216.31	-0.25	-13.19	-0.66	-1.11	0.10	3	0	0	3
51	216.88	-0.44	-12.50	-0.20	-0.53	-0.02	3	0	0	3
51	217.44	0.25	-11.81	-0.10	-0.24	0.30	3	0	0	3
50	218.31	0.63	-10.88	-0.03	-0.46	0.70	3	0	0	3
51	218.69	0.44	-11.06	-0.32	-0.68	0.31	3	0	0	3
50	218.94	0.44	-11.25	-0.39	-0.26	0.06	3	0	0	3
49	219.38	0.69	-11.13	-0.15	-0.43	0.05	3	0	0	3
50	219.69	0.81	-10.75	-0.08	-0.46	0.25	3	0	0	3
50	219.69	1.12	-10.00	-0.16	-0.17	0.45	3	0	0	3
50	219.63	1.12	-9.44	-0.37	-0.11	0.45	3	0	0	3
49	219.31	1.06	-9.31	-0.47	0.12	0.12	3	0	0	3
48	219.56	1.12	-8.75	-0.34	-0.23	0.21	3	0	0	3
49	219.50	1.12	-8.81	-0.32	-0.26	0.29	3	0	0	3
49	219.25	1.31	-8.44	-0.24	-0.00	0.46	3	0	0	3
48	219.44	0.75	-9.00	-0.19	0.02	0.05	3	0	0	3
48	219.44	0.94	-8.38	-0.24	-0.07	0.01	3	0	0	3
49	219.44	0.94	-8.31	-0.29	-0.33	0.23	3	0	0	3
49	219.50	1.12	-7.75	-0.33	-0.37	0.24	3	0	0	3
49	219.38	0.81	-7.94	-0.35	-0.17	0.13	3	0	0	3
49	219.38	0.88	-7.31	-0.24	0.06	0.18	3	0	0	3
48	219.63	0.56	-6.81	-0.36	-0.34	0.20	3	0	0	3
48	219.50	0.44	-6.63	-0.48	-0.29	-0.13	3	0	0	3
50	219.38	0.50	-6.38	-0.46	-0.03	-0.14	3	0	0	3
50	219.38	0.94	-5.63	-0.39	0.01	0.17	3	0	0	3
49	219.44	1.19	-4.69	-0.27	-0.10	0.46	3	0	0	3
48	219.63	1.12	-4.31	-0.39	-0.22	0.16	3	0	0	3
49	219.88	1.06	-4.06	-0.51	-0.25	0.04	3	0	0	3
49	220.00	1.31	-3.50	-0.36	-0.08	0.15	3	0	0	3
49	220.38	1.50	-3.13	-0.26	-0.21	0.32	3	0	0	3
48	220.25	1.81	-2.81	-0.19	-0.18	0.26	3	0	0	3
49	220.31	2.06	-2.56	-0.16	-0.03	0.17	3	0	0	3
50	220.31	2.44	-1.88	-0.29	-0.40	0.35	3	0	0	3
48	220.13	2.56	-1.63	-0.19	-0.42	0.55	3	0	0	3
49	220.06	2.63	-1.37	-0.29	-0.53	0.52	3	0	0	3
49	220.00	2.50	-1.44	-0.40	-0.99	0.47	3	0	0	3
49	220.06	2.31	-1.63	-0.31	-1.82	0.16	3	0	0	3
48	219.50	2.69	-1.81	-0.05	-2.18	0.18	3	0	0	3
49	218.19	2.88	-1.63	-0.07	-1.71	0.58	3	0	0	3
50	216.63	2.38	-1.88	-0.22	-1.12	0.07	3	0	0	3
49	215.56	2.00	-1.56	-0.33	-0.65	-0.60	3	0	0	3
49	214.63	1.81	-1.81	-0.45	-0.32	-0.77	3	0	0	3
50	214.31	2.63	-1.12	-0.43	-0.29	-0.28	3	0	0	3
50	213.94	3.19	-1.00	-0.55	-0.16	0.47	3	0	0	3
49	213.75	3.69	-1.37	-0.52	0.64	0.06	3	0	0	3
48	214.69	5.13	-0.88	-0.16	1.49	0.20	3	0	0	3
48	216.69	5.63	0.37	0.02	1.00	0.85	3	0	0	3
46	218.38	5.88	0.69	-0.19	-0.13	0.73	3	0	0	3
47	218.75	6.06	1.63	-0.29	0.07	0.47	3	0	0	3
47	219.06	5.50	2.00	-0.17	0.09	0.35	2	0	0	3
47	218.75	4.44	1.00	-0.17	-0.08	0.10	2	0	0	3
48	218.06	4.00	1.00	-0.14	-0.20	-0.08	2	0	0	3
48	216.94	3.13	0.00	0.23	-0.45	0.30	2	0	0	3
47	215.56	1.88	-0.63	-0.19	-0.27	-0.44	2	0	0	3
51	214.31	1.06	-1.37	-0.32	-0.11	-0.48	2	0	0	3
50	213.00	0.12	-1.69	-0.40	-0.46	0.20	2	0	0	3
48	212.56	-0.31	-4.75	-1.21	-0.34	-1.02	2	0	0	3
51	212.94	-4.25	-6.94	-1.13	0.75	-0.48	2	0	0	3
50	213.44	-6.94	-7.38	-0.43	1.20	1.73	2	0	0	3
49	212.56	-3.69	-8.94	-0.18	1.11	0.88	2	0	0	3
49	212.06	-3.44	-6.75	-0.27	0.51	-0.35	2	0	0	3
50	211.63	-3.56	-6.06	-0.20	0.42	0.19	2	0	0	3
49	210.13	-2.63	-3.75	-0.45	0.86	0.88	2	0	0	3
48	209.25	0.63	-0.81	-0.36	0.76	0.72	2	0	0	3
48	208.69	2.31	1.12	-0.02	0.64	0.23	2	0	0	3
48	209.63	2.31	1.12	-0.30	0.43	0.36	2	0	0	3
46	210.13	2.69	1.50	-0.40	0.48	0.25	2	0	0	3
46	211.00	2.75	1.56	-0.42	0.31	0.20	2	0	0	3
48	212.19	2.88	1.63	-0.49	-0.07	0.16	2	0	0	3
48	212.50	2.94	1.63	-0.34	-0.08	0.16	2	0	0	3
47	212.88	2.88	1.69	-0.29	-0.22	0.17	2	0	0	3
48	213.88	2.94	1.69	-0.41	-0.20	0.12	2	0	0	3
48	214.63	2.88	1.69	-0.56	0.14	0.09	2	0	0	3
47	214.81	2.81	1.63	-0.39	0.06	0.10	2	0	0	3
46	215.06	2.75	1.63	-0.23	-0.15	0.12	2	0	0	3
48	215.50	2.63	1.56	-0.28	-0.09	0.18	2	0	0	3
48	215.75	2.44	1.56	-0.28	-0.04	0.20	2	0	0	3
48	215.75	2.38	1.56	-0.37	0.00	0.23	2	0	0	3
47	215.75	2.31	1.56	-0.31	-0.05	0.26	2	0	0	3
48	215.81	2.19	1.50	-0.20	-0.11	0.24	2	0	0	3
48	215.81	2.13	1.50	-0.17	-0.13	0.19	2	0	0	3
47	215.81	2.00	1.44	-0.22	-0.03	0.16	2	0	0	3
48	215.81	1.88	1.37	-0.30	0.05	0.21	2	0	0	3
47	215.81	1.69	1.25	-0.19	-0.09	0.22	2	0	0	3
47	215.81	1.63	1.19	-0.15	-0.11	0.20	2	0	0	3
49	215.88	1.56	1.19	-0.20	-0.05	0.18	2	0	0	3
48	215.88	1.63	1.37	-0.19	-0.04	0.20	2	0	0	3
48	215.88	1.63	1.31	-0.14	-0.10	0.23	2	0	0	3
47	215.88	1.56	1.25	-0.15	-0.07	0.20	2	0	0	3
48	215.88	1.50	1.25	-0.16	-0.05	0.18	2	0	0	3
48	215.88	1.50	1.25	-0.19	-0.04	0.16	2	0	0	3
47	215.88	1.50	1.31	-0.16	-0.06	0.17	2	0	0	3
48	215.88	1.44	1.31	-0.13	-0.07	0.16	2	0	0	3
48	215.88	1.44	1.31	-0.16	-0.03	0.11	2	0	0	3
49	215.88	1.37	1.31	-0.16	0.00	0.11	2	0	0	3
46	215.88	1.37	1.31	-0.13	-0.05	0.11	2	0	0	3
48	215.88	1.37	1.31	-0.13	-0.07	0.14	2	0	0	3
48	215.88	1.37	1.31	-0.14	-0.06	0.21	2	0	0	3
47	215.88	1.31	1.31	-0.14	-0.06	0.20	2	0	0	3
48	215.88	1.31	1.31	-0.16	-0.02	0.18	2	0	0	3
48	215.88	1.31	1.37	-0.18	0.00	0.23	2	0	0	3
47	215.88	1.31	1.37	-0.14	0.00	0.23	2	0	0	3
46	215.88	1.25	1.37	-0.14	-0.00	0.21	2	0	0	3
49	215.88	1.25	1.37	-0.14	-0.03	0.22	2	0	0	3
48	215.88	1.25	1.37	-0.13	-0.02	0.23	2	0	0	3
47	215.88	1.25	1.37	-0.12	-0.01	0.23	2	0	0	3
48	215.88	1.19	1.37	-0.12	-0.01	0.20	2	0	0	3
48	215.88	1.19	1.37	-0.13	0.00	0.19	2	0	0	3
47	215.88	1.19	1.44	-0.02	-0.11	0.29	2	0	0	3
47	215.88	1.25	1.50	0.01	-0.12	0.27	2	0	0	3
47	215.88	1.25	1.50	-0.07	-0.03	0.18	2	0	0	3
49	215.88	1.25	1.50	-0.09	-0.03	0.18	2	0	0	3
47	215.88	1.25	1.56	-0.09	-0.03	0.16	2	0	0	3
48	215.81	1.19	1.56	-0.04	-0.09	0.15	2	0	0	3
48	215.81	1.06	1.44	-0.06	-0.07	0.14	2	0	0	3
48	215.81	1.06	1.44	-0.11	-0.04	0.10	2	0	0	3
47	215.81	1.06	1.50	-0.11	-0.05	0.14	2	0	0	3
48	215.81	1.00	1.50	-0.11	-0.00	0.21	2	0	0	3
48	215.81	1.00	1.50	-0.11	0.00	0.21	2	0	0	3
46	215.81	1.00	1.50	-0.11	-0.01	0.22	2	0	0	3
49	215.81	1.00	1.50	-0.10	-0.02	0.20	2	0	0	3
48	215.81	1.00	1.50	-0.10	-0.01	0.19	2	0	0	3
48	215.81	1.00	1.50	-0.10	-0.01	0.24	2	0	0	3
47	215.81	1.00	1.50	-0.11	-0.01	0.24	2	0	0	3
48	215.81	1.00	1.50	-0.12	-0.02	0.25	2	0	0	3
48	215.81	1.00	1.50	-0.10	-0.02	0.23	2	0	0	3
48	215.81	1.00	1.50	-0.09	-0.00	0.20	2	0	0	3
47	215.81	1.00	1.50	-0.12	0.00	0.20	2	0	0	3
48	215.81	1.00	1.50	-0.13	0.00	0.19	2	0	0	3
47	215.81	1.00	1.50	-0.11	-0.00	0.19	2	0	0	3
47	215.81	1.00	1.50	-0.10	-0.00	0.18	2	0	0	3
48	215.81	1.00	1.50	-0.11	0.00	0.17	2	3	0	3
47	215.81	1.00	1.50	-0.11	-0.01	0.17	2	3	0	3
48	215.81	1.00	1.50	-0.10	-0.01	0.13	2	3	0	3
47	215.81	1.00	1.50	-0.12	0.00	0.09	2	3	0	3
47	215.81	1.00	1.50	-0.12	0.00	0.11	2	3	0	3
47	215.81	1.00	1.50	-0.11	-0.01	0.15	2	3	0	3
48	215.81	1.00	1.50	-0.12	-0.01	0.20	2	3	0	3
48	215.81	1.00	1.50	-0.11	-0.00	0.21	2	3	0	3
48	215.81	1.00	1.50	-0.11	-0.01	0.21	2	3	0	3
48	215.81	1.00	1.50	-0.11	-0.01	0.21	2	3	0	3
47	215.81	1.00	1.50	-0.11	-0.01	0.22	2	3	0	3
48	215.81	1.00	1.50	-0.12	-0.00	0.24	2	3	0	3
48	215.81	1.00	1.50	-0.12	-0.01	0.24	2	3	0	3
47	215.81	1.00	1.50	-0.11	-0.02	0.24	2	3	0	3
49	215.81	1.00	1.50	-0.12	-0.00	0.20	2	3	0	3
48	215.81	1.00	1.50	-0.11	-0.01	0.18	2	3	0	3
48	215.81	1.00	1.50	-0.12	-0.02	0.20	2	3	0	3
47	215.81	1.00	1.50	-0.12	-0.01	0.20	2	3	0	3
48	215.81	1.00	1.50	-0.11	-0.00	0.20	2	3	0	3
48	215.81	1.00	1.50	-0.11	-0.00	0.21	2	3	0	3
47	215.81	1.00	1.50	-0.12	0.00	0.19	2	3	0	3
47	215.81	1.00	1.50	-0.12	-0.00	0.15	2	3	0	3
48	215.81	1.00	1.50	-0.11	-0.00	0.11	2	3	0	3
49	215.81	1.00	1.50	-0.11	-0.01	0.09	2	3	0	3
47	215.81	1.00	1.50	-0.13	-0.01	0.10	2	3	0	3
48	215.81	1.00	1.50	-0.11	-0.01	0.11	2	3	0	3
48	215.81	1.00	1.50	-0.12	-0.01	0.11	2	3	0	3
47	215.81	1.00	1.50	-0.13	-0.00	0.15	2	3	0	3
48	215.81	1.00	1.50	-0.11	0.00	0.21	2	3	0	3
47	215.81	1.00	1.50	-0.10	0.00	0.20	2	3	0	3
47	215.81	1.00	1.50	-0.10	0.00	0.21	2	3	0	3
46	215.81	1.00	1.50	-0.10	0.00	0.24	2	3	0	3
48	215.81	1.00	1.50	-0.11	0.00	0.24	2	3	0	3
47	215.81	1.00	1.50	-0.11	0.00	0.23	2	3	0	3
46	215.81	1.00	1.50	-0.10	0.00	0.22	2	3	0	3
47	215.81	1.00	1.50	-0.10	0.01	0.22	2	3	0	3
47	215.81	1.00	1.50	-0.10	0.01	0.21	2	3	0	3
46	215.81	1.00	1.50	-0.10	-0.00	0.19	2	3	0	3
48	215.81	1.00	1.50	-0.11	-0.01	0.18	2	3	0	3
48	215.81	1.00	1.50	-0.11	-0.02	0.19	2	3	0	3
48	215.81	1.00	1.50	-0.12	-0.01	0.18	2	3	0	3
48	215.81	1.00	1.50	-0.12	0.00	0.13	2	3	0	3
47	215.81	1.00	1.50	-0.11	-0.00	0.11	2	3	0	3
48	215.81	1.00	1.50	-0.10	-0.01	0.11	2	3	0	3
47	215.81	1.00	1.50	-0.12	-0.00	0.12	2	3	0	3
48	215.81	1.00	1.50	-0.13	-0.01	0.16	2	3	0	3
48	215.81	1.00	1.50	-0.11	-0.01	0.23	2	3	0	3
49	215.81	1.00	1.50	-0.11	-0.01	0.22	2	3	0	3
46	215.81	1.00	1.50	-0.11	-0.00	0.21	2	3	0	3
48	215.81	1.00	1.50	-0.11	0.01	0.25	2	3	0	3
48	215.81	1.00	1.50	-0.11	-0.01	0.24	2	3	0	3
48	215.81	1.00	1.50	-0.11	-0.02	0.22	2	3	0	3
47	215.81	1.00	1.50	-0.09	-0.04	0.52	2	3	0	3
48	215.81	1.00	1.50	-0.08	-0.02	0.50	2	3	0	3
48	215.81	1.00	1.50	-0.12	0.03	0.14	2	3	0	3
46	215.81	1.00	1.50	-0.12	0.01	0.14	2	3	0	3
47	215.81	1.00	1.50	-0.10	-0.01	0.21	2	3	0	3
48	215.81	1.00	1.50	-0.12	-0.01	0.19	2	3	0	3
49	215.81	1.00	1.50	-0.12	0.00	0.15	2	3	0	3
46	215.81	1.00	1.50	-0.11	-0.01	0.16	2	3	0	3
48	215.81	1.00	1.50	-0.10	-0.03	0.17	2	3	0	3
48	215.81	1.00	1.50	-0.11	-0.03	0.18	2	3	0	3
47	215.81	1.00	1.50	-0.11	-0.02	0.16	2	3	0	3
48	215.81	1.00	1.50	-0.10	-0.02	0.13	2	3	0	3
48	215.81	1.00	1.50	-0.11	-0.02	0.11	2	3	0	3
48	215.81	1.00	1.50	-0.11	-0.01	0.10	2	3	0	3
47	215.81	1.00	1.50	-0.11	-0.02	0.17	2	3	0	3
49	215.81	1.00	1.50	-0.11	-0.02	0.21	2	3	0	3
48	215.81	1.00	1.50	-0.11	-0.03	0.24	2	3	0	3
47	215.81	1.00	1.50	-0.11	-0.03	0.23	2	3	0	3
48	215.81	1.00	1.50	-0.11	-0.01	0.20	2	3	0	3
48	215.81	1.00	1.50	-0.11	-0.01	0.23	2	3	0	3
48	215.81	1.00	1.50	-0.12	-0.01	0.22	2	3	0	3
47	215.81	1.00	1.50	-0.12	-0.01	0.21	2	3	0	3
48	215.81	1.00	1.50	-0.11	-0.01	0.21	2	3	0	3
49	215.81	1.00	1.50	-0.12	-0.03	0.21	2	3	0	3
47	215.81	1.00	1.50	-0.12	-0.03	0.19	2	3	0	3
48	215.81	1.00	1.50	-0.11	-0.01	0.23	2	3	0	3
48	215.81	1.00	1.50	-0.11	-0.01	0.23	2	3	0	3
48	215.81	1.00	1.50	-0.12	0.00	0.21	2	3	0	3
46	215.81	1.00	1.50	-0.12	-0.01	0.18	2	3	0	3
49	215.81	1.00	1.50	-0.11	-0.02	0.18	2	3	0	3
47	215.81	1.00	1.50	-0.11	-0.01	0.21	2	3	0	3
47	215.81	1.00	1.50	-0.12	-0.00	0.15	2	3	0	3
49	215.81	1.00	1.50	-0.12	-0.01	0.10	2	3	0	3
48	215.81	1.00	1.50	-0.12	-0.01	0.12	2	3	0	3
48	215.81	1.00	1.50	-0.11	-0.01	0.15	2	3	0	3
47	215.81	1.00	1.50	-0.11	-0.02	0.14	2	3	0	3
48	215.81	1.00	1.50	-0.13	-0.01	0.18	2	3	0	3
48	215.81	1.00	1.50	-0.13	0.00	0.23	2	3	0	3
46	215.81	1.00	1.50	-0.13	0.00	0.23	2	3	0	3
47	215.81	1.00	1.50	-0.13	0.00	0.23	2	3	0	3
48	215.81	1.00	1.50	-0.11	-0.01	0.23	2	3	0	3
48	215.81	1.00	1.50	-0.11	-0.01	0.23	2	3	0	3
47	215.81	1.00	1.50	-0.12	-0.00	0.22	2	3	0	3
48	215.81	1.00	1.50	-0.13	-0.01	0.21	2	3	0	3
48	215.81	1.00	1.50	-0.13	-0.00	0.19	2	3	0	3
47	215.81	1.00	1.50	-0.12	0.01	0.19	2	3	0	3
47	215.81	1.00	1.50	-0.11	0.01	0.21	2	3	0	3
47	215.81	1.00	1.50	-0.11	-0.00	0.20	2	3	0	3
48	215.81	1.00	1.50	-0.12	-0.02	0.16	2	3	0	3
48	215.81	1.00	1.50	-0.12	-0.01	0.16	2	3	0	3
48	215.81	1.00	1.50	-0.12	-0.00	0.17	2	3	0	3
48	215.81	1.00	1.50	-0.12	-0.01	0.19	2	3	0	3
47	215.81	1.00	1.50	-0.12	-0.01	0.16	2	3	0	3
48	215.81	1.00	1.50	-0.13	-0.01	0.12	2	3	0	3
48	215.81	1.00	1.50	-0.13	-0.01	0.10	2	3	0	3
48	215.81	1.00	1.50	-0.11	-0.00	0.10	2	3	0	3
47	215.81	1.00	1.50	-0.12	-0.01	0.18	2	3	0	3
49	215.81	1.00	1.50	-0.12	-0.02	0.21	2	3	0	3
48	215.81	1.00	1.50	-0.12	-0.01	0.22	2	3	0	3
47	215.81	1.00	1.50	-0.13	-0.02	0.22	2	3	0	3
48	215.81	1.00	1.50	-0.13	-0.02	0.22	2	3	0	3
48	215.81	1.00	1.50	-0.13	-0.01	0.22	2	3	0	3
48	215.81	1.00	1.50	-0.12	-0.01	0.21	2	3	0	3
48	215.81	1.00	1.50	-0.12	-0.01	0.23	2	3	0	3
47	215.81	1.00	1.50	-0.13	-0.02	0.24	2	3	0	3
48	215.81	1.00	1.50	-0.13	-0.01	0.23	2	3	0	3
49	215.81	1.00	1.50	-0.12	0.00	0.21	2	3	0	3
46	215.81	1.00	1.50	-0.11	-0.00	0.18	2	3	0	3
48	215.81	1.00	1.50	-0.12	-0.01	0.18	2	3	0	3
48	215.81	1.00	1.50	-0.13	-0.01	0.19	2	3	0	3
47	215.81	1.00	1.50	-0.12	-0.02	0.18	2	3	0	3
48	215.81	1.00	1.50	-0.11	-0.02	0.17	2	3	0	3
48	215.81	1.00	1.50	-0.11	-0.00	0.17	2	3	0	3
48	215.81	1.00	1.50	-0.12	-0.01	0.13	2	3	0	3
48	215.81	1.00	1.50	-0.12	-0.02	0.11	2	3	0	3
48	215.81	1.00	1.50	-0.12	-0.02	0.11	2	3	0	3
48	215.81	1.00	1.50	-0.12	-0.01	0.12	2	3	0	3
47	215.81	1.00	1.50	-0.12	-0.00	0.11	2	3	0	3
48	215.81	1.00	1.50	-0.13	-0.01	0.17	2	3	0	3
48	215.81	1.00	1.50	-0.12	-0.01	0.22	2	3	0	3
48	215.81	1.00	1.50	-0.11	-0.01	0.22	2	3	0	3
47	215.81	1.00	1.50	-0.11	-0.01	0.21	2	3	0	3
49	215.81	1.00	1.50	-0.11	-0.01	0.21	2	3	0	3
48	215.81	1.00	1.50	-0.11	-0.00	0.23	2	3	0	3
47	215.81	1.00	1.50	-0.12	-0.01	0.23	2	3	0	3
48	215.81	1.00	1.50	-0.12	-0.01	0.24	2	3	0	3
48	215.81	1.00	1.50	-0.11	-0.01	0.25	2	3	0	3
48	215.81	1.00	1.50	-0.12	-0.00	0.24	2	3	0	3
48	215.81	1.00	1.50	-0.13	-0.00	0.20	2	3	0	3
47	215.81	1.00	1.50	-0.12	-0.01	0.20	2	3	0	3
49	215.81	1.00	1.50	-0.12	-0.01	0.20	2	3	0	3
47	215.81	1.00	1.50	-0.11	-0.02	0.18	2	3	0	3
48	215.81	1.00	1.50	-0.12	-0.02	0.16	2	3	0	3
48	215.81	1.00	1.50	-0.13	-0.01	0.16	2	3	0	3
48	215.81	1.00	1.50	-0.12	-0.01	0.16	2	3	0	3
47	215.81	1.00	1.50	-0.12	-0.01	0.16	2	3	0	3
48	215.81	1.00	1.50	-0.11	-0.02	0.14	2	3	0	3
48	215.81	1.00	1.50	-0.12	-0.01	0.14	2	3	0	3
48	215.81	1.00	1.50	-0.13	-0.02	0.13	2	3	0	3
48	215.81	1.00	1.50	-0.12	-0.02	0.11	2	3	0	3
48	215.81	1.00	1.50	-0.13	-0.01	0.13	2	3	0	3
48	215.81	1.00	1.50	-0.13	-0.02	0.16	2	3	0	3
47	215.81	1.00	1.50	-0.12	-0.00	0.21	2	3	0	3
48	215.81	1.00	1.50	-0.12	-0.01	0.21	2	3	0	3
48	215.81	1.00	1.50	-0.12	-0.02	0.20	2	3	0	3
48	215.81	1.00	1.50	-0.12	-0.01	0.21	2	3	0	3
47	215.81	1.00	1.50	-0.11	0.00	0.21	2	3	0	3
48	215.81	1.00	1.50	-0.13	-0.00	0.21	2	3	0	3
48	215.81	1.00	1.50	-0.14	-0.01	0.22	2	3	0	3
47	215.81	1.00	1.50	-0.12	-0.01	0.22	2	3	0	3
48	215.81	1.00	1.50	-0.11	-0.01	0.22	2	3	0	3
48	215.81	1.00	1.50	-0.12	-0.01	0.22	2	3	0	3
48	215.81	1.00	1.50	-0.12	-0.01	0.21	2	3	0	3
48	215.81	1.00	1.50	-0.12	-0.01	0.20	2	3	0	3
47	215.81	1.00	1.50	-0.11	-0.01	0.18	2	3	0	3
49	215.81	1.00	1.50	-0.12	-0.01	0.16	2	3	0	3
47	215.81	1.00	1.50	-0.13	-0.01	0.15	2	3	0	3
48	215.81	1.00	1.50	-0.13	-0.01	0.13	2	3	0	3
48	215.81	1.00	1.50	-0.12	-0.01	0.12	2	3	0	3
48	215.81	1.00	1.50	-0.11	-0.01	0.12	2	3	0	3
47	215.81	1.00	1.50	-0.12	-0.01	0.10	2	3	0	3
48	215.81	1.00	1.50	-0.13	-0.02	0.10	2	3	0	3
48	215.81	1.00	1.50	-0.12	-0.03	0.18	2	3	0	3
47	215.81	1.00	1.50	-0.11	-0.02	0.21	2	3	0	3
49	215.81	1.00	1.50	-0.11	-0.02	0.20	2	3	0	3
48	215.81	1.00	1.50	-0.12	-0.01	0.20	2	3	0	3
48	215.81	1.00	1.50	-0.13	0.00	0.20	2	3	0	3
46	215.81	1.00	1.50	-0.13	0.00	0.22	2	3	0	3
47	215.81	1.00	1.50	-0.11	-0.00	0.23	2	3	0	3
48	215.81	1.00	1.50	-0.11	-0.00	0.24	2	3	0	3
47	215.81	1.00	1.50	-0.12	-0.01	0.20	2	3	0	3
48	215.81	1.00	1.50	-0.13	-0.02	0.18	2	3	0	3
49	215.81	1.00	1.50	-0.12	-0.01	0.19	2	3	0	3
48	215.81	1.00	1.50	-0.12	-0.01	0.20	2	3	0	3
47	215.81	1.00	1.50	-0.12	-0.00	0.22	2	3	0	3
48	215.81	1.00	1.50	-0.12	-0.01	0.21	2	3	0	3
48	215.81	1.00	1.50	-0.12	-0.02	0.18	2	3	0	3
47	215.81	1.00	1.50	-0.12	-0.02	0.16	2	3	0	3
49	215.81	1.00	1.50	-0.12	-0.02	0.17	2	3	0	3
47	215.81	1.00	1.50	-0.12	-0.01	0.14	2	3	0	3
48	215.81	1.00	1.50	-0.11	-0.01	0.12	2	3	0	3
48	215.81	1.00	1.50	-0.11	-0.02	0.12	2	3	0	3
48	215.81	1.00	1.50	-0.12	-0.01	0.11	2	3	0	3
48	215.81	1.00	1.50	-0.12	-0.02	0.10	2	3	0	3
48	215.81	1.00	1.50	-0.11	-0.01	0.12	2	3	0	3
47	215.81	1.00	1.50	-0.12	-0.01	0.15	2	3	0	3
48	215.81	1.00	1.50	-0.13	-0.01	0.20	2	3	0	3
48	215.81	1.00	1.50	-0.12	-0.01	0.20	2	3	0	3
47	215.81	1.00	1.50	-0.11	-0.02	0.21	2	3	0	3
49	215.81	1.00	1.50	-0.11	-0.02	0.24	2	3	0	3
48	215.81	1.00	1.50	-0.11	-0.03	0.26	2	3	0	3
48	215.81	1.00	1.50	-0.12	-0.02	0.24	2	3	0	3
47	215.81	1.00	1.50	-0.12	-0.01	0.22	2	3	0	3
48	215.81	1.00	1.50	-0.12	-0.00	0.22	2	3	0	3
48	215.81	1.00	1.50	-0.13	-0.02	0.20	2	3	0	3
47	215.81	1.00	1.50	-0.13	-0.02	0.22	2	3	0	3
48	215.81	1.00	1.50	-0.11	-0.01	0.21	2	3	0	3
49	215.81	1.00	1.50	-0.11	-0.01	0.20	2	3	0	3
48	215.81	1.00	1.50	-0.12	-0.02	0.18	2	3	0	3
47	215.81	1.00	1.50	-0.12	-0.02	0.16	2	3	0	3
48	215.81	1.00	1.50	-0.13	-0.02	0.17	2	3	0	3
48	215.81	1.00	1.50	-0.13	-0.01	0.16	2	3	0	3
47	215.81	1.00	1.50	-0.13	-0.00	0.15	2	3	0	3
48	215.81	1.00	1.50	-0.12	0.00	0.12	2	3	0	3
47	215.81	1.00	1.50	-0.12	-0.01	0.12	2	3	0	3
49	215.81	1.00	1.50	-0.12	-0.03	0.13	2	3	0	3
47	215.81	1.00	1.50	-0.13	-0.03	0.17	2	3	0	3
48	215.81	1.00	1.50	-0.14	-0.00	0.19	2	3	0	3
48	215.81	1.00	1.50	-0.13	0.00	0.20	2	3	0	3
46	215.81	1.00	1.50	-0.13	-0.01	0.21	2	3	0	3
48	215.81	1.00	1.50	-0.12	-0.03	0.21	2	3	0	3
48	215.81	1.00	1.50	-0.12	-0.03	0.22	2	3	0	3
48	215.81	1.00	1.50	-0.12	-0.02	0.23	2	3	0	3
47	215.81	1.00	1.50	-0.11	-0.01	0.25	2	3	0	3
49	215.81	1.00	1.50	-0.10	-0.01	0.24	2	3	0	3
48	215.81	1.00	1.50	-0.11	0.00	0.24	2	3	0	3
46	215.81	1.00	1.50	-0.12	0.00	0.20	2	3	0	3
47	215.81	1.00	1.50	-0.13	-0.01	0.19	2	3	0	3
48	215.81	1.00	1.50	-0.14	-0.01	0.20	2	3	0	3
48	215.81	1.00	1.50	-0.12	-0.00	0.16	2	3	0	3
47	215.81	1.00	1.50	-0.11	0.00	0.15	2	3	0	3
47	215.81	1.00	1.50	-0.11	-0.00	0.16	2	3	0	3
48	215.81	1.00	1.50	-0.11	-0.01	0.11	2	3	0	3
48	215.81	1.00	1.50	-0.13	-0.02	0.09	2	3	0	3
48	215.81	1.00	1.50	-0.14	-0.03	0.10	2	3	0	3
48	215.81	1.00	1.50	-0.13	-0.03	0.11	2	3	0	3
48	215.81	1.00	1.50	-0.12	-0.01	0.11	2	3	0	3
47	215.81	1.00	1.50	-0.12	-0.00	0.14	2	3	0	3
48	215.81	1.00	1.50	-0.12	-0.01	0.21	2	3	0	3
48	215.81	1.00	1.50	-0.12	-0.01	0.20	2	3	0	3
48	215.81	1.00	1.50	-0.12	-0.01	0.19	2	3	0	3
48	215.81	1.00	1.50	-0.12	0.00	0.19	2	3	0	3
47	215.81	1.00	1.50	-0.12	0.00	0.20	2	3	0	3
47	215.81	1.00	1.50	-0.13	0.00	0.23	2	3	0	3
46	215.81	1.00	1.50	-0.13	-0.00	0.22	2	3	0	3
48	215.81	1.00	1.50	-0.13	-0.01	0.22	2	3	0	3
48	215.81	1.00	1.50	-0.11	-0.01	0.21	2	3	0	3
47	215.81	1.00	1.50	-0.11	-0.01	0.21	2	3	0	3
48	215.81	1.00	1.50	-0.12	-0.00	0.20	2	3	0	3
48	215.81	1.00	1.50	-0.12	-0.01	0.20	2	3	0	3
49	215.81	1.00	1.50	-0.12	-0.02	0.19	2	3	0	3
47	215.81	1.00	1.50	-0.12	-0.02	0.16	2	3	0	3
48	215.81	1.00	1.50	-0.12	-0.00	0.15	2	3	0	3
48	215.81	1.00	1.50	-0.13	-0.00	0.15	2	3	0	3
48	215.81	1.00	1.50	-0.13	-0.00	0.13	2	3	0	3
47	215.81	1.00	1.50	-0.13	-0.00	0.10	2	3	0	3
48	215.81	1.00	1.50	-0.13	-0.01	0.11	2	3	0	3
48	215.81	1.00	1.50	-0.11	-0.01	0.11	2	3	0	3
48	215.81	1.00	1.50	-0.11	-0.01	0.17	2	3	0	3
48	215.81	1.00	1.50	-0.12	-0.01	0.20	2	3	0	3
48	215.81	1.00	1.50	-0.13	-0.01	0.20	2	3	0	3
48	215.81	1.00	1.50	-0.13	-0.01	0.20	2	3	0	3
47	215.81	1.00	1.50	-0.12	-0.01	0.20	2	3	0	3
48	215.81	1.00	1.50	-0.12	-0.01	0.23	2	3	0	3
48	215.81	1.00	1.50	-0.12	-0.01	0.22	2	3	0	3
47	215.81	1.00	1.50	-0.12	-0.01	0.21	2	3	0	3
49	215.81	1.00	1.50	-0.10	-0.01	0.22	2	3	0	3
48	215.81	1.00	1.50	-0.10	-0.02	0.23	2	3	0	3
48	215.81	1.00	1.50	-0.11	-0.02	0.21	2	3	0	3
47	215.81	1.00	1.50	-0.12	-0.01	0.20	2	3	0	3
48	215.81	1.00	1.50	-0.12	-0.00	0.20	2	3	0	3
48	215.81	1.00	1.50	-0.11	-0.00	0.22	2	3	0	3
47	215.81	1.00	1.50	-0.10	-0.01	0.20	2	3	0	3
48	215.81	1.00	1.50	-0.10	-0.01	0.16	2	3	0	3
48	215.81	1.00	1.50	-0.11	-0.00	0.15	2	3	0	3
49	215.81	1.00	1.50	-0.11	-0.01	0.16	2	3	0	3
47	215.81	1.00	1.50	-0.11	-0.02	0.15	2	3	0	3
48	215.81	1.00	1.50	-0.12	-0.01	0.11	2	3	0	3
48	215.81	1.00	1.50	-0.12	-0.01	0.12	2	3	0	3
47	215.81	1.00	1.50	-0.11	-0.02	0.11	2	3	0	3
48	215.81	1.00	1.50	-0.12	-0.01	0.11	2	3	0	3
48	215.81	1.00	1.50	-0.11	-0.01	0.15	2	3	0	3
48	215.81	1.00	1.50	-0.10	-0.01	0.20	2	3	0	3
48	215.81	1.00	1.50	-0.12	-0.01	0.19	2	3	0	3
48	215.81	1.00	1.50	-0.14	-0.02	0.19	2	3	0	3
48	215.81	1.00	1.50	-0.13	-0.03	0.23	2	3	0	3
48	215.81	1.00	1.50	-0.11	-0.02	0.22	2	3	0	3
47	215.81	1.00	1.50	-0.11	-0.01	0.22	2	3	0	3
48	215.81	1.00	1.50	-0.12	-0.01	0.23	2	3	0	3
48	215.81	1.00	1.50	-0.12	-0.01	0.21	2	3	0	3
47	215.81	1.00	1.50	-0.12	-0.01	0.19	2	3	0	3
49	215.81	1.00	1.50	-0.13	-0.00	0.20	2	3	0	3
48	215.81	1.00	1.50	-0.12	-0.01	0.21	2	3	0	3
48	215.81	1.00	1.50	-0.12	-0.02	0.21	2	3	0	3
47	215.81	1.00	1.50	-0.11	-0.01	0.19	2	3	0	3
48	215.81	1.00	1.50	-0.11	-0.02	0.15	2	3	0	3
48	215.81	1.00	1.50	-0.11	-0.03	0.15	2	3	0	3
48	215.81	1.00	1.50	-0.11	-0.02	0.16	2	3	0	3
47	215.81	1.00	1.50	-0.12	-0.00	0.14	2	3	0	3
49	215.81	1.00	1.50	-0.13	0.01	0.13	2	3	0	3
47	215.81	1.00	1.50	-0.12	-0.00	0.11	2	3	0	3
47	215.81	1.00	1.50	-0.13	-0.01	0.11	2	3	0	3
48	215.81	1.00	1.50	-0.13	-0.00	0.13	2	3	0	3
48	215.81	1.00	1.50	-0.12	-0.01	0.15	2	3	0	3
47	215.81	1.00	1.50	-0.12	-0.02	0.19	2	3	0	3
48	215.81	1.00	1.50	-0.12	-0.02	0.20	2	3	0	3
48	215.81	1.00	1.50	-0.12	-0.01	0.19	2	3	0	3
48	215.81	1.00	1.50	-0.11	-0.00	0.22	2	3	0	3
48	215.81	1.00	1.50	-0.11	0.00	0.23	2	3	0	3
47	215.81	1.00	1.50	-0.11	-0.00	0.23	2	3	0	3
48	215.81	1.00	1.50	-0.11	-0.02	0.23	2	3	0	3
47	215.81	1.00	1.50	-0.12	-0.01	0.23	2	3	0	3
48	215.81	1.00	1.50	-0.13	0.00	0.20	2	3	0	3
47	215.81	1.00	1.50	-0.12	-0.01	0.21	2	3	0	3
48	215.81	1.00	1.50	-0.11	-0.02	0.23	2	3	0	3
47	215.81	1.00	1.50	-0.12	-0.01	0.17	2	3	0	3
48	215.81	1.00	1.50	-0.12	-0.00	0.15	2	3	0	3
49	215.81	1.00	1.50	-0.12	-0.02	0.16	2	3	0	3
47	215.81	1.00	1.50	-0.12	-0.02	0.16	2	3	0	3
48	215.81	1.00	1.50	-0.11	-0.00	0.14	2	3	0	3
48	215.81	1.00	1.50	-0.11	-0.02	0.12	2	3	0	3
48	215.81	1.00	1.50	-0.11	-0.02	0.10	2	3	0	3
47	215.81	1.00	1.50	-0.12	-0.01	0.09	2	3	0	3
48	215.81	1.00	1.50	-0.13	-0.01	0.09	2	3	0	3
48	215.81	1.00	1.50	-0.14	-0.00	0.15	2	3	0	3
49	215.81	1.00	1.50	-0.14	-0.01	0.20	2	3	0	3
47	215.81	1.00	1.50	-0.13	-0.01	0.19	2	3	0	3
48	215.81	1.00	1.50	-0.12	-0.02	0.19	2	3	0	3
48	215.81	1.00	1.50	-0.12	-0.03	0.19	2	3	0	3
47	215.81	1.00	1.50	-0.13	-0.01	0.24	2	3	0	3
48	215.81	1.00	1.50	-0.12	-0.02	0.25	2	3	0	3
48	215.81	1.00	1.50	-0.13	-0.02	0.23	2	3	0	3
48	215.81	1.00	1.50	-0.14	-0.01	0.25	2	3	0	3
48	215.81	1.00	1.50	-0.13	-0.01	0.23	2	3	0	3
48	215.81	1.00	1.50	-0.13	0.00	0.20	2	3	0	3
47	215.81	1.00	1.50	-0.12	-0.01	0.21	2	3	0	3
47	215.81	1.00	1.50	-0.13	-0.01	0.21	2	3	0	3
48	215.81	1.00	1.50	-0.13	-0.00	0.21	2	3	0	3
48	215.81	1.00	1.50	-0.12	0.00	0.19	2	3	0	3
48	215.81	1.00	1.50	-0.13	-0.00	0.17	2	3	0	3
46	215.81	1.00	1.50	-0.13	-0.01	0.17	2	3	0	3
48	215.81	1.00	1.50	-0.12	-0.02	0.13	2	3	0	3
49	215.81	1.00	1.50	-0.12	-0.02	0.12	2	3	0	3
47	215.81	1.00	1.50	-0.11	-0.02	0.13	2	3	0	3
48	215.81	1.00	1.50	-0.11	-0.02	0.12	2	3	0	3
48	215.81	1.00	1.50	-0.12	-0.02	0.10	2	3	0	3
48	215.81	1.00	1.50	-0.12	-0.01	0.16	2	3	0	3
47	215.81	1.00	1.50	-0.12	-0.01	0.20	2	3	0	3
48	215.81	1.00	1.50	-0.12	-0.01	0.18	2	3	0	3
48	215.81	1.00	1.50	-0.13	-0.00	0.22	2	3	0	3
48	215.81	1.00	1.50	-0.12	-0.02	0.25	2	3	0	3
48	215.81	1.00	1.50	-0.12	-0.02	0.23	2	3	0	3
48	215.81	1.00	1.50	-0.12	-0.02	0.21	2	3	0	3
48	215.81	1.00	1.50	-0.13	-0.02	0.22	2	3	0	3
47	215.81	1.00	1.50	-0.13	-0.01	0.23	2	3	0	3
48	215.81	1.00	1.50	-0.13	-0.00	0.22	2	3	0	3
48	215.81	1.00	1.50	-0.13	-0.01	0.21	2	3	0	3
47	215.81	1.00	1.50	-0.13	-0.01	0.21	2	3	0	3
49	215.81	1.00	1.50	-0.13	-0.00	0.21	2	3	0	3
48	215.81	1.00	1.50	-0.13	-0.01	0.21	2	3	0	3
48	215.81	1.00	1.50	-0.12	-0.01	0.20	2	3	0	3
47	215.81	1.00	1.50	-0.11	-0.01	0.16	2	3	0	3
48	215.81	1.00	1.50	-0.12	-0.01	0.15	2	3	0	3
48	215.81	1.00	1.50	-0.11	-0.01	0.17	2	3	0	3
48	215.81	1.00	1.50	-0.12	-0.01	0.15	2	3	0	3
47	215.81	1.00	1.50	-0.13	-0.01	0.12	2	3	0	3
49	215.81	1.00	1.50	-0.13	-0.01	0.11	2	3	0	3
48	215.81	1.00	1.50	-0.13	-0.01	0.11	2	3	0	3
47	215.81	1.00	1.50	-0.13	-0.01	0.11	2	3	0	3
48	215.81	1.00	1.50	-0.13	-0.00	0.13	2	3	0	3
48	215.81	1.00	1.50	-0.12	-0.01	0.20	2	3	0	3
48	215.81	1.00	1.50	-0.12	-0.02	0.24	2	3	0	3
47	215.81	1.00	1.50	-0.12	-0.03	0.25	2	3	0	3
48	215.81	1.00	1.50	-0.12	-0.01	0.24	2	3	0	3
48	215.81	1.00	1.50	-0.12	-0.02	0.23	2	3	0	3
48	215.81	1.00	1.50	-0.13	-0.03	0.24	2	3	0	3
48	215.81	1.00	1.50	-0.12	-0.01	0.23	2	3	0	3
48	215.81	1.00	1.50	-0.12	-0.00	0.23	2	3	0	3
48	215.81	1.00	1.50	-0.13	-0.01	0.22	2	3	0	3
47	215.81	1.00	1.50	-0.12	-0.01	0.20	2	3	0	3
48	215.81	1.00	1.50	-0.12	-0.00	0.20	2	3	0	3
48	215.81	1.00	1.50	-0.13	-0.01	0.22	2	3	0	3
47	215.81	1.00	1.50	-0.12	-0.02	0.19	2	3	0	3
49	215.81	1.00	1.50	-0.12	-0.02	0.15	2	3	0	3
48	215.81	1.00	1.50	-0.13	-0.02	0.15	2	3	0	3
48	215.81	1.00	1.50	-0.12	-0.01	0.15	2	3	0	3
47	215.81	1.00	1.50	-0.11	0.00	0.17	2	3	0	3
47	215.81	1.00	1.50	-0.12	0.00	0.15	2	3	0	3
47	215.81	1.00	1.50	-0.13	0.00	0.12	2	3	0	3
46	215.81	1.00	1.50	-0.11	-0.00	0.12	2	3	0	3
48	215.81	1.00	1.50	-0.11	-0.02	0.15	2	3	0	3
48	215.81	1.00	1.50	-0.12	-0.03	0.20	2	3	0	3
49	215.81	1.00	1.50	-0.12	-0.02	0.22	2	3	0	3
47	215.81	1.00	1.50	-0.13	-0.02	0.23	2	3	0	3
48	215.81	1.00	1.50	-0.13	-0.01	0.23	2	3	0	3
48	215.81	1.00	1.50	-0.12	-0.00	0.22	2	3	0	3
47	215.81	1.00	1.50	-0.13	-0.01	0.23	2	3	0	3
48	215.81	1.00	1.50	-0.13	-0.02	0.24	2	3	0	3
48	215.81	1.00	1.50	-0.12	-0.01	0.24	2	3	0	3
48	215.81	1.00	1.50	-0.12	-0.00	0.23	2	3	0	3
48	215.81	1.00	1.50	-0.12	-0.01	0.22	2	3	0	3
48	215.81	1.00	1.50	-0.11	-0.02	0.21	2	3	0	3
48	215.81	1.00	1.50	-0.11	-0.01	0.21	2	3	0	3
47	215.81	1.00	1.50	-0.12	-0.00	0.19	2	3	0	3
48	215.81	1.00	1.50	-0.14	-0.01	0.19	2	3	0	3
48	215.81	1.00	1.50	-0.13	-0.01	0.20	2	3	0	3
48	215.81	1.00	1.50	-0.14	-0.01	0.19	2	3	0	3
47	215.81	1.00	1.50	-0.13	-0.01	0.16	2	3	0	3
49	215.81	1.00	1.50	-0.12	-0.01	0.12	2	3	0	3
48	215.81	1.00	1.50	-0.13	-0.00	0.11	2	3	0	3
48	215.81	1.00	1.50	-0.13	-0.00	0.11	2	3	0	3
47	215.81	1.00	1.50	-0.12	-0.01	0.11	2	3	0	3
48	215.81	1.00	1.50	-0.13	-0.01	0.11	2	3	0	3
48	215.81	1.00	1.50	-0.13	-0.02	0.18	2	3	0	3
48	215.81	1.00	1.50	-0.12	-0.02	0.21	2	3	0	3
47	215.81	1.00	1.50	-0.12	-0.01	0.21	2	3	0	3
49	215.81	1.00	1.50	-0.11	-0.00	0.22	2	3	0	3
48	215.81	1.00	1.50	-0.12	-0.01	0.22	2	3	0	3
47	215.81	1.00	1.50	-0.13	-0.02	0.24	2	3	0	3
48	215.81	1.00	1.50	-0.12	-0.03	0.23	2	3	0	3
48	215.81	1.00	1.50	-0.12	-0.02	0.22	2	3	0	3
47	215.81	1.00	1.50	-0.12	-0.00	0.22	2	3	0	3
48	215.81	1.00	1.50	-0.11	-0.01	0.21	2	3	0	3
48	215.81	1.00	1.50	-0.11	-0.01	0.21	2	3	0	3
48	215.81	1.00	1.50	-0.12	-0.01	0.21	2	3	0	3
48	215.81	1.00	1.50	-0.12	-0.00	0.21	2	3	0	3
48	215.81	1.00	1.50	-0.11	-0.01	0.20	2	3	0	3
48	215.81	1.00	1.50	-0.12	-0.01	0.17	2	3	0	3
47	215.81	1.00	1.50	-0.13	-0.00	0.18	2	3	0	3
48	215.81	1.00	1.50	-0.13	-0.00	0.17	2	3	0	3
48	215.81	1.00	1.50	-0.13	-0.01	0.17	2	3	0	3
48	215.81	1.00	1.50	-0.13	-0.01	0.16	2	3	0	3
47	215.81	1.00	1.50	-0.13	-0.02	0.12	2	3	0	3
49	215.81	1.00	1.50	-0.13	-0.01	0.11	2	3	0	3
48	215.81	1.00	1.50	-0.12	0.00	0.11	2	3	0	3
46	215.81	1.00	1.50	-0.11	-0.00	0.17	2	3	0	3
48	215.81	1.00	1.50	-0.13	-0.00	0.21	2	3	0	3
48	215.81	1.00	1.50	-0.13	-0.01	0.22	2	3	0	3
48	215.81	1.00	1.50	-0.12	-0.01	0.23	2	3	0	3
48	215.81	1.00	1.50	-0.12	-0.01	0.22	2	3	0	3
47	215.81	1.00	1.50	-0.11	-0.03	0.23	2	3	0	3
49	215.81	1.00	1.50	-0.13	-0.02	0.22	2	3	0	3
48	215.81	1.00	1.50	-0.14	0.00	0.21	2	3	0	3
46	215.81	1.00	1.50	-0.12	-0.00	0.22	2	3	0	3
48	215.81	1.00	1.50	-0.12	-0.01	0.21	2	3	0	3
48	215.81	1.00	1.50	-0.12	-0.02	0.22	2	3	0	3
47	215.81	1.00	1.50	-0.12	-0.01	0.23	2	3	0	3
48	215.81	1.00	1.50	-0.12	-0.00	0.23	2	3	0	3
48	215.81	1.00	1.50	-0.13	-0.01	0.20	2	3	0	3
48	215.81	1.00	1.50	-0.13	-0.02	0.16	2	3	0	3
48	215.81	1.00	1.50	-0.11	-0.01	0.17	2	3	0	3
48	215.81	1.00	1.50	-0.13	0.00	0.17	2	3	0	3
47	215.81	1.00	1.50	-0.14	-0.01	0.13	2	3	0	3
47	215.81	1.00	1.50	-0.13	-0.01	0.12	2	3	0	3
48	215.81	1.00	1.50	-0.12	-0.01	0.11	2	3	0	3
48	215.81	1.00	1.50	-0.13	-0.00	0.10	2	3	0	3
48	215.81	1.00	1.50	-0.14	-0.00	0.15	2	3	0	3
47	215.81	1.00	1.50	-0.13	-0.02	0.23	2	3	0	3
49	215.81	1.00	1.50	-0.12	-0.03	0.22	2	3	0	3
48	215.81	1.00	1.50	-0.10	-0.04	0.22	2	3	0	3
47	215.81	1.00	1.50	-0.12	-0.03	0.22	2	3	0	3
48	215.81	1.00	1.50	-0.13	-0.00	0.21	2	3	0	3
48	215.81	1.00	1.50	-0.12	-0.00	0.22	2	3	0	3
48	215.81	1.00	1.50	-0.12	-0.00	0.22	2	3	0	3
48	215.81	1.00	1.50	-0.12	0.00	0.23	2	3	0	3
46	215.81	1.00	1.50	-0.13	0.00	0.22	2	3	0	3
47	215.81	1.00	1.50	-0.13	-0.01	0.22	2	3	0	3
48	215.81	1.00	1.50	-0.12	-0.02	0.22	2	3	0	3
48	215.81	1.00	1.50	-0.12	-0.01	0.21	2	3	0	3
48	215.81	1.00	1.50	-0.13	-0.01	0.19	2	3	0	3
48	215.81	1.00	1.50	-0.12	-0.01	0.17	2	3	0	3
47	215.81	1.00	1.50	-0.10	-0.01	0.16	2	3	0	3
48	215.81	1.00	1.50	-0.11	-0.02	0.17	2	3	0	3
48	215.81	1.00	1.50	-0.10	-0.02	0.14	2	3	0	3
47	215.81	1.00	1.50	-0.11	0.01	0.10	2	3	0	3
48	215.81	1.00	1.50	-0.13	0.00	0.11	2	3	0	3
47	215.81	1.00	1.50	-0.12	-0.01	0.10	2	3	0	3
48	215.81	1.00	1.50	-0.12	-0.01	0.16	2	3	0	3
47	215.81	1.00	1.50	-0.13	-0.01	0.22	2	3	0	3
48	215.81	1.00	1.50	-0.12	-0.01	0.22	2	3	0	3
48	215.81	1.00	1.50	-0.14	-0.01	0.22	2	3	0	3
47	215.81	1.00	1.50	-0.14	-0.00	0.21	2	3	0	3
48	215.81	1.00	1.50	-0.12	-0.03	0.25	2	3	0	3
48	215.81	1.00	1.50	-0.11	-0.02	0.26	2	3	0	3
49	215.81	1.00	1.50	-0.11	-0.00	0.23	2	3	0	3
47	215.81	1.00	1.50	-0.11	-0.02	0.24	2	3	0	3
48	215.81	1.00	1.50	-0.11	-0.01	0.21	2	3	0	3
48	215.81	1.00	1.50	-0.12	0.00	0.19	2	3	0	3
46	215.81	1.00	1.50	-0.12	-0.01	0.21	2	3	0	3
48	215.81	1.00	1.50	-0.11	-0.01	0.21	2	3	0	3
48	215.81	1.00	1.50	-0.11	-0.00	0.19	2	3	0	3
48	215.81	1.00	1.50	-0.12	0.00	0.17	2	3	0	3
46	215.81	1.00	1.50	-0.12	-0.00	0.17	2	3	0	3
49	215.81	1.00	1.50	-0.11	-0.02	0.18	2	3	0	3
48	215.81	1.00	1.50	-0.11	-0.02	0.14	2	3	0	3
47	215.81	1.00	1.50	-0.12	-0.01	0.11	2	3	0	3
48	215.81	1.00	1.50	-0.13	-0.02	0.11	2	3	0	3
48	215.81	1.00	1.50	-0.13	-0.02	0.11	2	3	0	3
48	215.81	1.00	1.50	-0.13	-0.01	0.11	2	3	0	3
47	215.81	1.00	1.50	-0.12	-0.01	0.18	2	3	0	3
48	215.81	1.00	1.50	-0.13	-0.01	0.22	2	3	0	3
49	215.81	1.00	1.50	-0.12	-0.00	0.21	2	3	0	3
48	215.81	1.00	1.50	-0.11	-0.02	0.22	2	3	0	3
47	215.81	1.00	1.50	-0.11	-0.03	0.23	2	3	0	3
48	215.81	1.00	1.50	-0.11	-0.01	0.23	2	3	0	3
48	215.81	1.00	1.50	-0.12	-0.01	0.23	2	3	0	3
47	215.81	1.00	1.50	-0.12	-0.01	0.21	2	3	0	3
48	215.81	1.00	1.50	-0.12	-0.01	0.19	2	3	0	3
48	215.81	1.00	1.50	-0.12	-0.02	0.20	2	3	0	3
49	215.81	1.00	1.50	-0.11	-0.03	0.20	2	3	0	3
47	215.81	1.00	1.50	-0.11	-0.02	0.20	2	3	0	3
48	215.81	1.00	1.50	-0.11	-0.02	0.21	2	3	0	3
48	215.81	1.00	1.50	-0.11	-0.01	0.19	2	3	0	3
47	215.81	1.00	1.50	-0.11	-0.01	0.17	2	3	0	3
48	215.81	1.00	1.50	-0.12	-0.01	0.18	2	3	0	3
48	215.81	1.00	1.50	-0.12	-0.01	0.20	2	3	0	3
48	215.81	1.00	1.50	-0.12	-0.03	0.15	2	3	0	3
48	215.81	1.00	1.50	-0.13	-0.02	0.11	2	3	0	3
48	215.81	1.00	1.50	-0.13	-0.01	0.09	2	3	0	3
48	215.81	1.00	1.50	-0.13	-0.01	0.10	2	3	0	3
47	215.81	1.00	1.50	-0.12	-0.01	0.11	2	3	0	3
48	215.81	1.00	1.50	-0.11	-0.02	0.17	2	3	0	3
48	215.81	1.00	1.50	-0.12	-0.02	0.20	2	3	0	3
48	215.81	1.00	1.50	-0.12	-0.01	0.20	2	3	0	3
47	215.81	1.00	1.50	-0.11	-0.01	0.21	2	3	0	3
48	215.81	1.00	1.50	-0.12	-0.01	0.21	2	3	0	3
49	215.81	1.00	1.50	-0.12	-0.02	0.22	2	3	0	3
47	215.81	1.00	1.50	-0.12	-0.02	0.23	2	3	0	3
48	215.81	1.00	1.50	-0.12	-0.02	0.24	2	3	0	3
48	215.81	1.00	1.50	-0.10	-0.02	0.24	2	3	0	3
48	215.81	1.00	1.50	-0.10	-0.03	0.24	2	3	0	3
47	215.81	1.00	1.50	-0.11	-0.04	0.21	2	3	0	3
48	215.81	1.00	1.50	-0.11	-0.02	0.21	2	3	0	3
48	215.81	1.00	1.50	-0.11	-0.00	0.22	2	3	0	3
49	215.81	1.00	1.50	-0.12	-0.01	0.20	2	3	0	3
47	215.81	1.00	1.50	-0.13	-0.02	0.19	2	3	0	3
48	215.81	1.00	1.50	-0.13	-0.01	0.16	2	3	0	3
48	215.81	1.00	1.50	-0.12	-0.01	0.17	2	3	0	3
47	215.81	1.00	1.50	-0.12	-0.01	0.18	2	3	0	3
48	215.81	1.00	1.50	-0.13	-0.01	0.14	2	3	0	3
48	215.81	1.00	1.50	-0.11	-0.02	0.11	2	3	0	3
48	215.81	1.00	1.50	-0.11	-0.02	0.11	2	3	0	3
48	215.81	1.00	1.50	-0.12	-0.01	0.10	2	3	0	3
48	215.81	1.00	1.50	-0.11	-0.02	0.11	2	3	0	3
48	215.81	1.00	1.50	-0.12	-0.02	0.16	2	3	0	3
47	215.81	1.00	1.50	-0.13	-0.01	0.20	2	3	0	3
48	215.81	1.00	1.50	-0.11	-0.01	0.19	2	3	0	3
48	215.81	1.00	1.50	-0.10	-0.01	0.20	2	3	0	3
48	215.81	1.00	1.50	-0.12	-0.02	0.23	2	3	0	3
47	215.81	1.00	1.50	-0.12	-0.01	0.23	2	3	0	3
49	215.81	1.00	1.50	-0.12	-0.00	0.23	2	3	0	3
48	215.81	1.00	1.50	-0.12	-0.00	0.23	2	3	0	3
47	215.81	1.00	1.50	-0.11	-0.01	0.23	2	3	0	3
48	215.81	1.00	1.50	-0.12	-0.02	0.22	2	3	0	3
48	215.81	1.00	1.50	-0.12	-0.02	0.21	2	3	0	3
48	215.81	1.00	1.50	-0.11	-0.02	0.20	2	3	0	3
48	215.81	1.00	1.50	-0.11	-0.02	0.21	2	3	0	3
47	215.81	1.00	1.50	-0.11	-0.01	0.20	2	3	0	3
49	215.81	1.00	1.50	-0.12	-0.01	0.15	2	3	0	3
47	215.81	1.00	1.50	-0.12	-0.01	0.15	2	3	0	3
48	215.81	1.00	1.50	-0.10	-0.02	0.18	2	3	0	3
48	215.81	1.00	1.50	-0.10	-0.01	0.17	2	3	0	3
48	215.81	1.00	1.50	-0.11	-0.01	0.12	2	3	0	3
47	215.81	1.00	1.50	-0.12	-0.02	0.12	2	3	0	3
48	215.81	1.00	1.50	-0.12	-0.04	0.13	2	3	0	3
48	215.81	1.00	1.50	-0.12	-0.03	0.14	2	3	0	3
48	215.81	1.00	1.50	-0.11	-0.02	0.17	2	3	0	3
48	215.81	1.00	1.50	-0.11	-0.01	0.21	2	3	0	3
48	215.81	1.00	1.50	-0.11	-0.02	0.19	2	3	0	3
48	215.81	1.00	1.50	-0.10	-0.02	0.17	2	3	0	3
47	215.81	1.00	1.50	-0.11	-0.01	0.18	2	3	0	3
48	215.81	1.00	1.50	-0.12	-0.01	0.20	2	3	0	3
48	215.81	1.00	1.50	-0.11	-0.01	0.23	2	3	0	3
48	215.81	1.00	1.50	-0.12	-0.02	0.22	2	3	0	3
47	215.81	1.00	1.50	-0.12	-0.00	0.23	2	3	0	3
49	215.81	1.00	1.50	-0.12	-0.01	0.23	2	3	0	3
48	215.81	1.00	1.50	-0.12	-0.02	0.21	2	3	0	3
47	215.81	1.00	1.50	-0.13	-0.02	0.21	2	3	0	3
48	215.81	1.00	1.50	-0.13	-0.01	0.21	2	3	0	3
48	215.81	1.00	1.50	-0.12	-0.00	0.20	2	3	0	3
48	215.81	1.00	1.50	-0.12	-0.01	0.17	2	3	0	3
47	215.81	1.00	1.50	-0.11	-0.01	0.17	2	3	0	3
48	215.81	1.00	1.50	-0.12	-0.02	0.16	2	3	0	3
49	215.81	1.00	1.50	-0.12	-0.01	0.15	2	3	0	3
47	215.81	1.00	1.50	-0.11	-0.02	0.13	2	3	0	3
48	215.81	1.00	1.50	-0.11	-0.02	0.10	2	3	0	3
48	215.81	1.00	1.50	-0.11	-0.02	0.12	2	3	0	3
48	215.81	1.00	1.50	-0.12	-0.02	0.12	2	3	0	3
47	215.81	1.00	1.50	-0.12	-0.02	0.12	2	3	0	3
49	215.81	1.00	1.50	-0.12	-0.02	0.17	2	3	0	3
47	215.81	1.00	1.50	-0.13	-0.02	0.18	2	3	0	3
47	215.81	1.00	1.50	-0.13	-0.02	0.17	2	3	0	3
49	215.81	1.00	1.50	-0.12	-0.01	0.23	2	3	0	3
48	215.81	1.00	1.50	-0.11	-0.02	0.24	2	3	0	3
48	215.81	1.00	1.50	-0.11	-0.02	0.23	2	3	0	3
47	215.81	1.00	1.50	-0.11	-0.03	0.24	2	3	0	3
48	215.81	1.00	1.50	-0.11	-0.01	0.24	2	3	0	3
48	215.81	1.00	1.50	-0.12	-0.00	0.24	2	3	0	3
48	215.81	1.00	1.50	-0.12	-0.01	0.23	2	3	0	3
47	215.81	1.00	1.50	-0.11	-0.02	0.22	2	3	0	3
49	215.81	1.00	1.50	-0.11	-0.01	0.20	2	3	0	3
48	215.81	1.00	1.50	-0.12	-0.02	0.19	2	3	0	3
47	215.81	1.00	1.50	-0.11	-0.02	0.21	2	3	0	3
48	215.81	1.00	1.50	-0.11	-0.01	0.20	2	3	0	3
48	215.81	1.00	1.50	-0.11	-0.01	0.16	2	3	0	3
48	215.81	1.00	1.50	-0.11	-0.02	0.16	2	3	0	3
47	215.81	1.00	1.50	-0.12	-0.03	0.17	2	3	0	3
48	215.81	1.00	1.50	-0.12	-0.01	0.14	2	3	0	3
49	215.81	1.00	1.50	-0.12	-0.01	0.12	2	3	0	3
47	215.81	1.00	1.50	-0.12	-0.02	0.12	2	3	0	3
48	215.81	1.00	1.50	-0.12	-0.02	0.12	2	3	0	3
48	215.81	1.00	1.50	-0.12	-0.02	0.13	2	3	0	3
48	215.81	1.00	1.50	-0.12	-0.01	0.19	2	3	0	3
47	215.81	1.00	1.50	-0.12	-0.01	0.24	2	3	0	3
48	215.81	1.00	1.50	-0.11	-0.03	0.22	2	3	0	3
48	215.81	1.00	1.50	-0.11	-0.04	0.22	2	3	0	3
48	215.81	1.00	1.50	-0.13	-0.03	0.22	2	3	0	3
48	215.81	1.00	1.50	-0.12	-0.00	0.24	2	3	0	3
48	215.81	1.00	1.50	-0.11	-0.02	0.25	2	3	0	3
48	215.81	1.00	1.50	-0.12	-0.02	0.25	2	3	0	3
47	215.81	1.00	1.50	-0.13	-0.01	0.24	2	3	0	3
48	215.81	1.00	1.50	-0.12	-0.02	0.23	2	3	0	3
48	215.81	1.00	1.50	-0.12	-0.02	0.22	2	3	0	3
47	215.81	1.00	1.50	-0.13	-0.00	0.21	2	3	0	3
48	215.81	1.00	1.50	-0.13	-0.00	0.22	2	3	0	3
49	215.81	1.00	1.50	-0.13	-0.02	0.20	2	3	0	3
48	215.81	1.00	1.50	-0.12	-0.02	0.16	2	3	0	3
47	215.81	1.00	1.50	-0.13	-0.01	0.18	2	3	0	3
48	215.81	1.00	1.50	-0.13	-0.02	0.19	2	3	0	3
48	215.81	1.00	1.50	-0.12	-0.02	0.18	2	3	0	3
49	215.81	1.00	1.50	-0.11	-0.01	0.14	2	3	0	3
46	215.81	1.00	1.50	-0.12	-0.01	0.11	2	3	0	3
48	215.81	1.00	1.50	-0.13	-0.01	0.12	2	3	0	3
49	215.81	1.00	1.50	-0.13	-0.02	0.12	2	3	0	3
47	215.81	1.00	1.50	-0.13	-0.02	0.20	2	3	0	3
48	215.81	1.00	1.50	-0.12	-0.02	0.24	2	3	0	3
48	215.81	1.00	1.50	-0.11	-0.02	0.24	2	3	0	3
48	215.81	1.00	1.50	-0.12	-0.01	0.23	2	3	0	3
47	215.81	1.00	1.50	-0.12	0.00	0.22	2	3	0	3
47	215.81	1.00	1.50	-0.12	-0.00	0.23	2	3	0	3
48	215.81	1.00	1.50	-0.13	-0.01	0.23	2	3	0	3
48	215.81	1.00	1.50	-0.12	-0.02	0.24	2	3	0	3
48	215.81	1.00	1.50	-0.12	-0.02	0.24	2	3	0	3
48	215.81	1.00	1.50	-0.13	-0.01	0.23	2	3	0	3
48	215.81	1.00	1.50	-0.12	-0.01	0.22	2	3	0	3
47	215.81	1.00	1.50	-0.12	-0.01	0.22	2	3	0	3
48	215.81	1.00	1.50	-0.12	-0.01	0.21	2	3	0	3
48	215.81	1.00	1.50	-0.12	-0.01	0.19	2	3	0	3
47	215.81	1.00	1.50	-0.13	-0.01	0.16	2	3	0	3
49	215.81	1.00	1.50	-0.12	-0.01	0.18	2	3	0	3
48	215.81	1.00	1.50	-0.11	-0.01	0.19	2	3	0	3
48	215.81	1.00	1.50	-0.12	-0.01	0.18	2	3	0	3
47	215.81	1.00	1.50	-0.13	-0.02	0.15	2	3	0	3
48	215.81	1.00	1.50	-0.12	-0.02	0.12	2	3	0	3
48	215.81	1.00	1.50	-0.12	-0.02	0.12	2	3	0	3
47	215.81	1.00	1.50	-0.13	-0.01	0.11	2	3	0	3
48	215.81	1.00	1.50	-0.12	-0.01	0.17	2	3	0	3
48	215.81	1.00	1.50	-0.12	-0.01	0.22	2	3	0	3
49	215.81	1.00	1.50	-0.12	-0.02	0.22	2	3	0	3
47	215.81	1.00	1.50	-0.11	-0.01	0.23	2	3	0	3
48	215.81	1.00	1.50	-0.11	-0.01	0.24	2	3	0	3
48	215.81	1.00	1.50	-0.12	-0.01	0.24	2	3	0	3
47	215.81	1.00	1.50	-0.12	-0.00	0.23	2	3	0	3
48	215.81	1.00	1.50	-0.12	-0.00	0.23	2	3	0	3
48	215.81	1.00	1.50	-0.11	-0.01	0.23	2	3	0	3
48	215.81	1.00	1.50	-0.12	-0.01	0.20	2	3	0	3
48	215.81	1.00	1.50	-0.12	-0.02	0.20	2	3	0	3
48	215.81	1.00	1.50	-0.11	-0.02	0.21	2	3	0	3
48	215.81	1.00	1.50	-0.12	-0.00	0.20	2	3	0	3
48	215.81	1.00	1.50	-0.11	-0.01	0.22	2	3	0	3
47	215.81	1.00	1.50	-0.12	-0.02	0.20	2	3	0	3
48	215.81	1.00	1.50	-0.13	-0.01	0.17	2	3	0	3
48	215.81	1.00	1.50	-0.13	-0.01	0.17	2	3	0	3
47	215.81	1.00	1.50	-0.12	-0.02	0.17	2	3	0	3
49	215.81	1.00	1.50	-0.11	-0.02	0.14	2	3	0	3
48	215.81	1.00	1.50	-0.12	-0.01	0.11	2	3	0	3
48	215.81	1.00	1.50	-0.14	-0.00	0.11	2	3	0	3
47	215.81	1.00	1.50	-0.14	-0.02	0.11	2	3	0	3
48	215.81	1.00	1.50	-0.12	-0.03	0.11	2	3	0	3
48	215.81	1.00	1.50	-0.12	-0.01	0.16	2	3	0	3
48	215.81	1.00	1.50	-0.13	-0.00	0.20	2	3	0	3
47	215.81	1.00	1.50	-0.13	0.00	0.20	2	3	0	3
47	215.81	1.00	1.50	-0.13	-0.00	0.21	2	3	0	3
49	215.81	1.00	1.50	-0.13	-0.00	0.23	2	3	0	3
47	215.81	1.00	1.50	-0.13	-0.00	0.25	2	3	0	3
48	215.81	1.00	1.50	-0.13	-0.01	0.25	2	3	0	3
48	215.81	1.00	1.50	-0.13	-0.02	0.23	2	3	0	3
47	215.81	1.00	1.50	-0.12	-0.01	0.21	2	3	0	3
48	215.81	1.00	1.50	-0.12	-0.01	0.20	2	3	0	3
48	215.81	1.00	1.50	-0.13	-0.01	0.20	2	3	0	3
48	215.81	1.00	1.50	-0.12	-0.00	0.21	2	3	0	3
48	215.81	1.00	1.50	-0.12	-0.02	0.21	2	3	0	3
48	215.81	1.00	1.50	-0.13	-0.02	0.18	2	3	0	3
48	215.81	1.00	1.50	-0.11	-0.01	0.18	2	3	0	3
47	215.81	1.00	1.50	-0.12	-0.01	0.19	2	3	0	3
48	215.81	1.00	1.50	-0.13	-0.01	0.18	2	3	0	3
48	215.81	1.00	1.50	-0.12	0.00	0.17	2	3	0	3
47	215.81	1.00	1.50	-0.13	0.01	0.14	2	3	0	3
46	215.81	1.00	1.50	-0.13	0.01	0.12	2	3	0	3
47	215.81	1.00	1.50	-0.12	0.00	0.16	2	3	0	3
48	215.81	1.00	1.50	-0.12	0.00	0.21	2	3	0	3
46	215.81	1.00	1.50	-0.13	0.01	0.20	2	3	0	3
47	215.81	1.00	1.50	-0.14	0.00	0.20	2	3	0	3
47	215.81	1.00	1.50	-0.14	-0.01	0.24	2	3	0	3
48	215.81	1.00	1.50	-0.13	-0.01	0.23	2	3	0	3
47	215.81	1.00	1.50	-0.12	-0.02	0.22	2	3	0	3
48	215.81	1.00	1.50	-0.12	-0.01	0.23	2	3	0	3
48	215.81	1.00	1.50	-0.13	-0.01	0.23	2	3	0	3
47	215.81	1.00	1.50	-0.13	-0.01	0.23	2	3	0	3
49	215.81	1.00	1.50	-0.13	-0.02	0.21	2	3	0	3
48	215.81	1.00	1.50	-0.12	-0.03	0.20	2	3	0	3
48	215.81	1.00	1.50	-0.11	-0.02	0.21	2	3	0	3
47	215.81	1.00	1.50	-0.12	-0.01	0.19	2	3	0	3
48	215.81	1.00	1.50	-0.12	0.00	0.18	2	3	0	3
47	215.81	1.00	1.50	-0.12	0.00	0.17	2	3	0	3
47	215.81	1.00	1.50	-0.13	-0.01	0.13	2	3	0	3
47	215.81	1.00	1.50	-0.13	-0.01	0.10	2	3	0	3
49	215.81	1.00	1.50	-0.14	-0.02	0.11	2	3	0	3
48	215.81	1.00	1.50	-0.14	-0.02	0.12	2	3	0	3
47	215.81	1.00	1.50	-0.13	-0.01	0.15	2	3	0	3
48	215.81	1.00	1.50	-0.13	-0.01	0.21	2	3	0	3
48	215.81	1.00	1.50	-0.13	-0.01	0.21	2	3	0	3
47	215.81	1.00	1.50	-0.12	-0.02	0.23	2	3	0	3
48	215.81	1.00	1.50	-0.13	-0.02	0.21	2	3	0	3
48	215.81	1.00	1.50	-0.13	-0.02	0.20	2	3	0	3
48	215.81	1.00	1.50	-0.11	-0.02	0.24	2	3	0	3
48	215.81	1.00	1.50	-0.12	-0.01	0.23	2	3	0	3
48	215.81	1.00	1.50	-0.12	0.00	0.22	2	3	0	3
47	215.81	1.00	1.50	-0.12	-0.01	0.20	2	3	0	3
47	215.81	1.00	1.50	-0.12	-0.01	0.20	2	3	0	3
48	215.81	1.00	1.50	-0.12	-0.01	0.20	2	3	0	3
48	215.81	1.00	1.50	-0.11	-0.01	0.20	2	3	0	3
48	215.81	1.00	1.50	-0.12	-0.00	0.20	2	3	0	3
47	215.81	1.00	1.50	-0.12	-0.01	0.17	2	3	0	3
49	215.81	1.00	1.50	-0.11	-0.01	0.16	2	3	0	3
48	215.81	1.00	1.50	-0.12	-0.00	0.18	2	3	0	3
48	215.81	1.00	1.50	-0.12	0.00	0.18	2	3	0	3
46	215.81	1.00	1.50	-0.12	-0.00	0.14	2	3	0	3
48	215.81	1.00	1.50	-0.12	-0.01	0.10	2	3	0	3
48	215.81	1.00	1.50	-0.13	-0.00	0.08	2	3	0	3
48	215.81	1.00	1.50	-0.13	-0.01	0.09	2	3	0	3
47	215.81	1.00	1.50	-0.11	-0.01	0.14	2	3	0	3
48	215.81	1.00	1.50	-0.12	-0.01	0.21	2	3	0	3
49	215.81	1.00	1.50	-0.13	-0.02	0.23	2	3	0	3
47	215.81	1.00	1.50	-0.13	-0.01	0.21	2	3	0	3
48	215.81	1.00	1.50	-0.12	-0.01	0.20	2	3	0	3
48	215.81	1.00	1.50	-0.13	-0.02	0.20	2	3	0	3
47	215.81	1.00	1.50	-0.12	-0.01	0.23	2	3	0	3
48	215.81	1.00	1.50	-0.13	-0.01	0.22	2	3	0	3
48	215.81	1.00	1.50	-0.13	-0.01	0.22	2	3	0	3
48	215.81	1.00	1.50	-0.12	0.00	0.21	2	3	0	3
47	215.81	1.00	1.50	-0.14	-0.01	0.22	2	3	0	3
48	215.81	1.00	1.50	-0.13	-0.01	0.19	2	3	0	3
48	215.81	1.00	1.50	-0.12	0.00	0.18	2	3	0	3
46	215.81	1.00	1.50	-0.12	-0.01	0.19	2	3	0	3
48	215.81	1.00	1.50	-0.13	-0.02	0.16	2	3	0	3
48	215.81	1.00	1.50	-0.13	-0.01	0.15	2	3	0	3
48	215.81	1.00	1.50	-0.13	-0.01	0.14	2	3	0	3
47	215.81	1.00	1.50	-0.14	-0.01	0.12	2	3	0	3
49	215.81	1.00	1.50	-0.13	0.00	0.12	2	3	0	3
47	215.81	1.00	1.50	-0.12	-0.00	0.13	2	3	0	3
47	215.81	1.00	1.50	-0.13	-0.01	0.12	2	3	0	3
48	215.81	1.00	1.50	-0.11	-0.01	0.17	2	3	0	3
48	215.81	1.00	1.50	-0.10	-0.01	0.20	2	3	0	3
48	215.81	1.00	1.50	-0.12	-0.00	0.20	2	3	0	3
47	215.81	1.00	1.50	-0.13	0.00	0.20	2	3	0	3
47	215.81	1.00	1.50	-0.13	0.00	0.20	2	3	0	3
47	215.81	1.00	1.50	-0.12	-0.01	0.22	2	3	0	3
48	215.81	1.00	1.50	-0.12	-0.02	0.22	2	3	0	3
48	215.81	1.00	1.50	-0.13	-0.02	0.23	2	3	0	3
48	215.81	1.00	1.50	-0.13	-0.01	0.24	2	3	0	3
48	215.81	1.00	1.50	-0.13	0.00	0.22	2	3	0	3
46	215.81	1.00	1.50	-0.13	-0.02	0.20	2	3	0	3
48	215.81	1.00	1.50	-0.13	-0.02	0.21	2	3	0	3
48	215.81	1.00	1.50	-0.12	-0.01	0.21	2	3	0	3
47	215.81	1.00	1.50	-0.11	-0.01	0.18	2	3	0	3
48	215.81	1.00	1.50	-0.12	-0.00	0.15	2	3	0	3
49	215.81	1.00	1.50	-0.13	-0.01	0.15	2	3	0	3
48	215.81	1.00	1.50	-0.13	-0.03	0.15	2	3	0	3
47	215.81	1.00	1.50	-0.12	-0.03	0.15	2	3	0	3
48	215.81	1.00	1.50	-0.11	-0.01	0.13	2	3	0	3
48	215.81	1.00	1.50	-0.12	-0.01	0.11	2	3	0	3
47	215.81	1.00	1.50	-0.13	-0.01	0.11	2	3	0	3
48	215.81	1.00	1.50	-0.12	-0.01	0.16	2	3	0	3
48	215.81	1.00	1.50	-0.12	-0.01	0.22	2	3	0	3
49	215.81	1.00	1.50	-0.13	-0.01	0.20	2	3	0	3
47	215.81	1.00	1.50	-0.13	-0.00	0.20	2	3	0	3
48	215.81	1.00	1.50	-0.12	-0.01	0.20	2	3	0	3
48	215.81	1.00	1.50	-0.11	-0.02	0.20	2	3	0	3
47	215.81	1.00	1.50	-0.12	-0.02	0.23	2	3	0	3
48	215.81	1.00	1.50	-0.12	0.00	0.23	2	3	0	3
47	215.81	1.00	1.50	-0.12	-0.01	0.24	2	3	0	3
48	215.81	1.00	1.50	-0.12	-0.02	0.23	2	3	0	3
47	215.81	1.00	1.50	-0.12	-0.01	0.23	2	3	0	3
49	215.81	1.00	1.50	-0.12	-0.02	0.21	2	3	0	3
48	215.81	1.00	1.50	-0.13	-0.01	0.20	2	3	0	3
48	215.81	1.00	1.50	-0.13	-0.00	0.20	2	3	0	3
47	215.81	1.00	1.50	-0.11	-0.00	0.18	2	3	0	3
48	215.81	1.00	1.50	-0.10	-0.01	0.17	2	3	0	3
49	215.81	1.00	1.50	-0.12	-0.02	0.15	2	3	0	3
46	215.81	1.00	1.50	-0.12	-0.02	0.14	2	3	0	3
48	215.81	1.00	1.50	-0.12	-0.03	0.13	2	3	0	3
49	215.81	1.00	1.50	-0.12	-0.02	0.11	2	3	0	3
48	215.81	1.00	1.50	-0.13	-0.01	0.11	2	3	0	3
47	215.81	1.00	1.50	-0.14	-0.00	0.09	2	3	0	3
48	215.81	1.00	1.50	-0.13	-0.02	0.10	2	3	0	3
48	215.81	1.00	1.50	-0.12	-0.01	0.18	2	3	0	3
47	215.81	1.00	1.50	-0.12	0.00	0.20	2	3	0	3
47	215.81	1.00	1.50	-0.12	-0.01	0.19	2	3	0	3
48	215.81	1.00	1.50	-0.11	-0.01	0.22	2	3	0	3
49	215.81	1.00	1.50	-0.11	-0.01	0.22	2	3	0	3
47	215.81	1.00	1.50	-0.13	-0.01	0.21	2	3	0	3
48	215.81	1.00	1.50	-0.10	-0.02	0.22	2	3	0	3
48	215.81	1.00	1.50	-0.09	-0.02	0.24	2	3	0	3
47	215.81	1.00	1.50	-0.12	-0.00	0.23	2	3	0	3
48	215.81	1.00	1.50	-0.10	-0.01	0.23	2	3	0	3
48	215.81	1.00	1.50	-0.11	-0.01	0.21	2	3	0	3
48	215.81	1.00	1.50	-0.13	-0.00	0.22	2	3	0	3
48	215.81	1.00	1.50	-0.14	0.01	0.20	2	3	0	3
47	215.81	1.00	1.50	-0.14	0.00	0.15	2	3	0	3
47	215.81	1.00	1.50	-0.12	-0.02	0.16	2	3	0	3
47	215.81	1.00	1.50	-0.11	-0.03	0.17	2	3	0	3
48	215.81	1.00	1.50	-0.11	-0.02	0.12	2	3	0	3
48	215.81	1.00	1.50	-0.11	-0.01	0.11	2	3	0	3
48	215.81	1.00	1.50	-0.10	-0.02	0.12	2	3	0	3
47	215.81	1.00	1.50	-0.11	-0.02	0.11	2	3	0	3
48	215.81	1.00	1.50	-0.11	-0.01	0.17	2	3	0	3
49	215.81	1.00	1.50	-0.11	-0.02	0.20	2	3	0	3
47	215.81	1.00	1.50	-0.11	-0.03	0.20	2	3	0	3
48	215.81	1.00	1.50	-0.11	-0.03	0.20	2	3	0	3
48	215.81	1.00	1.50	-0.12	-0.03	0.19	2	3	0	3
48	215.81	1.00	1.50	-0.12	-0.01	0.19	2	3	0	3
47	215.81	1.00	1.50	-0.10	-0.01	0.20	2	3	0	3
48	215.81	1.00	1.50	-0.10	-0.00	0.23	2	3	0	3
48	215.81	1.00	1.50	-0.12	-0.00	0.23	2	3	0	3
48	215.81	1.00	1.50	-0.12	-0.01	0.23	2	3	0	3
48	215.81	1.00	1.50	-0.13	-0.00	0.20	2	3	0	3
48	215.81	1.00	1.50	-0.13	-0.01	0.20	2	3	0	3
48	215.81	1.00	1.50	-0.12	-0.01	0.21	2	3	0	3
47	215.81	1.00	1.50	-0.11	-0.00	0.19	2	3	0	3
48	215.81	1.00	1.50	-0.11	-0.01	0.18	2	3	0	3
49	215.81	1.00	1.50	-0.11	-0.00	0.16	2	3	0	3
47	215.81	1.00	1.50	-0.11	-0.01	0.18	2	3	0	3
47	215.81	1.00	1.50	-0.11	-0.02	0.18	2	3	0	3
49	215.81	1.00	1.50	-0.12	-0.01	0.16	2	3	0	3
48	215.81	1.00	1.50	-0.13	-0.01	0.13	2	3	0	3
47	215.81	1.00	1.50	-0.12	-0.00	0.11	2	3	0	3
48	215.81	1.00	1.50	-0.12	0.00	0.11	2	3	0	3
47	215.81	1.00	1.50	-0.15	-0.00	0.11	2	3	0	3
48	215.81	1.00	1.50	-0.15	-0.02	0.14	2	3	0	3
47	215.81	1.00	1.50	-0.13	-0.05	0.20	2	3	0	3
48	215.81	1.00	1.50	-0.12	-0.05	0.19	2	3	0	3
49	215.81	1.00	1.50	-0.13	-0.03	0.19	2	3	0	3
47	215.81	1.00	1.50	-0.10	-0.02	0.24	2	3	0	3
48	215.81	1.00	1.50	-0.09	-0.02	0.24	2	3	0	3
48	215.81	1.00	1.50	-0.13	-0.04	0.20	2	3	0	3
48	215.81	1.00	1.50	-0.13	-0.03	0.21	2	3	0	3
47	215.81	1.00	1.50	-0.12	-0.01	0.24	2	3	0	3
48	215.81	1.00	1.50	-0.12	-0.02	0.23	2	3	0	3
48	215.81	1.00	1.50	-0.12	-0.02	0.22	2	3	0	3
48	215.81	1.00	1.50	-0.13	-0.02	0.23	2	3	0	3
48	215.81	1.00	1.50	-0.12	-0.03	0.22	2	3	0	3
48	215.81	1.00	1.50	-0.12	-0.03	0.20	2	3	0	3
48	215.81	1.00	1.50	-0.12	-0.01	0.18	2	3	0	3
47	215.81	1.00	1.50	-0.13	-0.01	0.17	2	3	0	3
48	215.81	1.06	1.50	-0.12	-0.01	0.17	2	3	0	3
48	215.81	1.06	1.50	-0.15	-0.00	0.16	2	3	0	3
47	215.81	1.06	1.50	-0.15	-0.03	0.12	2	3	0	3
48	215.81	1.06	1.50	-0.13	-0.04	0.10	2	3	0	3
49	215.81	1.06	1.50	-0.13	-0.00	0.09	2	3	0	3
48	215.81	1.12	1.50	-0.12	-0.01	0.09	2	3	0	3
47	215.81	1.12	1.56	-0.13	-0.01	0.13	2	3	0	3
48	215.81	1.19	1.56	-0.13	-0.01	0.19	2	3	0	3
48	215.81	1.19	1.56	-0.14	-0.01	0.22	2	3	0	3
49	215.81	1.19	1.56	-0.13	-0.01	0.21	2	3	0	3
46	215.81	1.19	1.56	-0.13	-0.02	0.20	2	3	0	3
48	215.81	1.19	1.56	-0.15	-0.01	0.21	2	3	0	3
49	215.81	1.19	1.56	-0.14	-0.00	0.22	2	3	0	3
47	215.81	1.19	1.56	-0.11	-0.02	0.25	2	3	0	3
48	215.81	1.19	1.56	-0.12	-0.03	0.25	2	3	0	3
48	215.81	1.19	1.56	-0.12	-0.01	0.24	2	3	0	3
48	215.81	1.19	1.56	-0.12	-0.01	0.23	2	3	0	3
47	215.81	1.19	1.56	-0.11	-0.02	0.20	2	3	0	3
48	215.81	1.19	1.56	-0.11	-0.02	0.20	2	3	0	3
48	215.81	1.19	1.56	-0.09	-0.03	0.22	2	3	0	3
48	215.81	1.19	1.56	-0.09	-0.03	0.19	2	3	0	3
48	215.81	1.19	1.56	-0.12	-0.02	0.17	2	3	0	3
48	215.81	1.19	1.56	-0.12	-0.01	0.17	2	3	0	3
48	215.81	1.19	1.56	-0.12	-0.02	0.17	2	3	0	3
47	215.81	1.19	1.56	-0.10	-0.01	0.14	2	3	0	3
48	215.81	1.19	1.56	-0.10	0.00	0.12	2	3	0	3
47	215.81	1.19	1.56	-0.10	-0.01	0.13	2	3	0	3
47	215.81	1.19	1.56	-0.10	-0.02	0.12	2	3	0	3
49	215.81	1.19	1.56	-0.11	-0.02	0.12	2	3	0	3
48	215.81	1.19	1.56	-0.11	-0.02	0.17	2	3	0	3
48	215.81	1.19	1.56	-0.11	-0.02	0.23	2	3	0	3
47	215.81	1.19	1.56	-0.11	-0.01	0.22	2	3	0	3
48	215.81	1.19	1.56	-0.12	-0.02	0.23	2	3	0	3
48	215.81	1.19	1.56	-0.12	-0.01	0.24	2	3	0	3
47	215.81	1.19	1.56	-0.11	-0.01	0.23	2	3	0	3
48	215.81	1.19	1.56	-0.11	-0.03	0.24	2	3	0	3
48	215.81	1.19	1.56	-0.11	-0.03	0.23	2	3	0	3
49	215.81	1.19	1.56	-0.10	-0.02	0.22	2	3	0	3
47	215.81	1.19	1.56	-0.10	-0.01	0.22	2	3	0	3
48	215.81	1.19	1.56	-0.11	-0.01	0.21	2	3	0	3
48	215.81	1.19	1.56	-0.11	-0.02	0.21	2	3	0	3
47	215.81	1.19	1.56	-0.10	-0.02	0.22	2	3	0	3
48	215.81	1.19	1.56	-0.09	-0.01	0.18	2	3	0	3
48	215.81	1.19	1.56	-0.10	-0.01	0.17	2	3	0	3
48	215.81	1.19	1.56	-0.11	-0.01	0.18	2	3	0	3
48	215.81	1.19	1.56	-0.12	-0.02	0.16	2	3	0	3
48	215.81	1.19	1.56	-0.11	-0.02	0.15	2	3	0	3
48	215.81	1.19	1.56	-0.11	-0.01	0.14	2	3	0	3
48	215.81	1.19	1.56	-0.12	-0.01	0.12	2	3	0	3
47	215.81	1.19	1.56	-0.11	-0.03	0.12	2	3	0	3
48	215.81	1.19	1.56	-0.11	-0.02	0.10	2	3	0	3
48	215.81	1.19	1.56	-0.11	-0.01	0.14	2	3	0	3
47	215.81	1.19	1.56	-0.10	0.00	0.23	2	3	0	3
48	215.81	1.19	1.56	-0.11	-0.01	0.23	2	3	0	3
48	215.81	1.19	1.56	-0.11	-0.02	0.23	2	3	0	3
48	215.81	1.19	1.56	-0.09	-0.02	0.24	2	3	0	3
47	215.81	1.19	1.56	-0.10	-0.02	0.23	2	3	0	3
48	215.81	1.19	1.56	-0.10	-0.02	0.22	2	3	0	3
48	215.81	1.19	1.56	-0.10	-0.01	0.21	2	3	0	3
47	215.81	1.19	1.56	-0.11	-0.01	0.22	2	3	0	3
48	215.81	1.19	1.56	-0.10	-0.01	0.22	2	3	0	3
48	215.81	1.19	1.56	-0.11	-0.00	0.21	2	3	0	3
49	215.81	1.19	1.56	-0.12	-0.01	0.21	2	3	0	3
47	215.81	1.19	1.56	-0.11	-0.02	0.20	2	3	0	3
48	215.81	1.19	1.56	-0.11	-0.02	0.17	2	3	0	3
48	215.81	1.19	1.56	-0.10	-0.02	0.15	2	3	0	3
47	215.81	1.19	1.56	-0.10	-0.02	0.16	2	3	0	3
48	215.81	1.19	1.56	-0.11	-0.01	0.17	2	3	0	3
48	215.81	1.19	1.56	-0.11	-0.00	0.13	2	3	0	3
48	215.81	1.19	1.56	-0.11	-0.00	0.11	2	3	0	3
48	215.81	1.19	1.56	-0.11	0.00	0.12	2	3	0	3
47	215.81	1.19	1.56	-0.10	-0.01	0.11	2	3	0	3
48	215.81	1.19	1.56	-0.10	-0.02	0.10	2	3	0	3
47	215.81	1.19	1.56	-0.09	-0.02	0.15	2	3	0	3
48	215.81	1.19	1.56	-0.10	-0.01	0.23	2	3	0	3
48	215.81	1.19	1.56	-0.10	-0.01	0.22	2	3	0	3
48	215.81	1.19	1.56	-0.10	-0.01	0.20	2	3	0	3
47	215.81	1.19	1.56	-0.09	-0.00	0.21	2	3	0	3
49	215.81	1.19	1.56	-0.09	-0.01	0.21	2	3	0	3
48	215.81	1.19	1.56	-0.10	-0.02	0.21	2	3	0	3
47	215.81	1.19	1.56	-0.10	-0.01	0.22	2	3	0	3
48	215.81	1.19	1.56	-0.11	0.00	0.22	2	3	0	3
47	215.81	1.19	1.56	-0.12	-0.00	0.22	2	3	0	3
48	215.81	1.19	1.56	-0.12	-0.01	0.22	2	3	0	3
47	215.81	1.19	1.56	-0.12	-0.01	0.21	2	3	0	3
48	215.81	1.19	1.56	-0.12	-0.01	0.20	2	3	0	3
48	215.81	1.19	1.56	-0.11	-0.01	0.16	2	3	0	3
49	215.81	1.19	1.56	-0.11	-0.01	0.16	2	3	0	3
47	215.81	1.19	1.56	-0.11	-0.02	0.16	2	3	0	3
48	215.81	1.19	1.56	-0.11	-0.01	0.16	2	3	0	3
48	215.81	1.19	1.56	-0.10	-0.01	0.17	2	3	0	3
47	215.81	1.19	1.56	-0.08	-0.01	0.14	2	3	0	3
48	215.81	1.19	1.56	-0.09	-0.01	0.12	2	3	0	3
48	215.81	1.19	1.56	-0.11	-0.01	0.10	2	3	0	3
48	215.81	1.19	1.56	-0.10	-0.02	0.10	2	3	0	3
48	215.81	1.19	1.56	-0.10	-0.01	0.15	2	3	0	3
48	215.81	1.19	1.56	-0.11	0.00	0.22	2	3	0	3
47	215.81	1.19	1.56	-0.11	-0.00	0.19	2	3	0	3
47	215.81	1.19	1.56	-0.12	-0.00	0.20	2	3	0	3
48	215.81	1.19	1.56	-0.12	-0.00	0.23	2	3	0	3
48	215.81	1.19	1.56	-0.11	-0.01	0.24	2	3	0	3
48	215.81	1.19	1.56	-0.11	-0.01	0.23	2	3	0	3
47	215.81	1.19	1.56	-0.10	-0.00	0.22	2	3	0	3
49	215.81	1.19	1.56	-0.11	0.00	0.21	2	3	0	3
47	215.81	1.19	1.56	-0.12	-0.00	0.20	2	3	0	3